{
  "trace_rerun_options": [],
  "benchmark_metadata": {
    "rerun_options": [],
    "type": "telemetry_benchmark",
    "name": "cros_ui_smoothness",
    "description": "Measures ChromeOS UI smoothness."
  },
  "format_version": "0.1",
  "benchmark_description": "Measures ChromeOS UI smoothness.",
  "enabled": true,
  "charts": {
    "mean_frame_time": {
      "overview:yahoo_news": {
        "std": 0.0,
        "name": "mean_frame_time",
        "type": "list_of_scalar_values",
        "improvement_direction": "down",
        "important": true,
        "values": [
          35.665999999999997
        ],
        "story_tags": [],
        "units": "ms",
        "page_id": 0,
        "description": "Arithmetic mean of frame times."
      },
      "overview:js_poster_circle": {
        "std": 0.0,
        "name": "mean_frame_time",
        "type": "list_of_scalar_values",
        "improvement_direction": "down",
        "important": true,
        "values": [
          18.347000000000001
        ],
        "story_tags": [],
        "units": "ms",
        "page_id": 1,
        "description": "Arithmetic mean of frame times."
      },
      "summary": {
        "std": 0.0,
        "name": "mean_frame_time",
        "improvement_direction": "down",
        "important": true,
        "values": [
          35.665999999999997,
          18.347000000000001
        ],
        "units": "ms",
        "type": "list_of_scalar_values",
        "description": "Arithmetic mean of frame times."
      }
    },
    "frame_time_discrepancy": {
      "overview:yahoo_news": {
        "std": 0.0,
        "name": "frame_time_discrepancy",
        "type": "list_of_scalar_values",
        "improvement_direction": "down",
        "important": true,
        "values": [
          427.0591
        ],
        "story_tags": [],
        "units": "ms",
        "page_id": 0,
        "description": "Absolute discrepancy of frame time stamps, where discrepancy is a measure of irregularity. It quantifies the worst jank. For a single pause, discrepancy corresponds to the length of this pause in milliseconds. Consecutive pauses increase the discrepancy. This metric is important because even if the mean and 95th percentile are good, one long pause in the middle of an interaction is still bad."
      },
      "overview:js_poster_circle": {
        "std": 0.0,
        "name": "frame_time_discrepancy",
        "type": "list_of_scalar_values",
        "improvement_direction": "down",
        "important": true,
        "values": [
          134.60480000000001
        ],
        "story_tags": [],
        "units": "ms",
        "page_id": 1,
        "description": "Absolute discrepancy of frame time stamps, where discrepancy is a measure of irregularity. It quantifies the worst jank. For a single pause, discrepancy corresponds to the length of this pause in milliseconds. Consecutive pauses increase the discrepancy. This metric is important because even if the mean and 95th percentile are good, one long pause in the middle of an interaction is still bad."
      },
      "summary": {
        "std": 0.0,
        "name": "frame_time_discrepancy",
        "improvement_direction": "down",
        "important": true,
        "values": [
          427.0591,
          134.60480000000001
        ],
        "units": "ms",
        "type": "list_of_scalar_values",
        "description": "Absolute discrepancy of frame time stamps, where discrepancy is a measure of irregularity. It quantifies the worst jank. For a single pause, discrepancy corresponds to the length of this pause in milliseconds. Consecutive pauses increase the discrepancy. This metric is important because even if the mean and 95th percentile are good, one long pause in the middle of an interaction is still bad."
      }
    },
    "trace": {
      "overview:yahoo_news": {
        "name": "trace",
        "type": "trace",
        "important": false,
        "story_tags": [],
        "units": "",
        "page_id": 0,
        "file_path": "/usr/local/telemetry/src/overview_yahoo_news_2018-09-01_23-44-13_75019.html"
      },
      "overview:js_poster_circle": {
        "name": "trace",
        "type": "trace",
        "important": false,
        "story_tags": [],
        "units": "",
        "page_id": 1,
        "file_path": "/usr/local/telemetry/src/overview_js_poster_circle_2018-09-01_23-44-31_24554.html"
      }
    },
    "first_gesture_scroll_update_latency": {
      "overview:yahoo_news": {
        "std": null,
        "name": "first_gesture_scroll_update_latency",
        "type": "list_of_scalar_values",
        "improvement_direction": "down",
        "important": true,
        "values": null,
        "none_value_reason": "Merging values containing a None value results in a None value. None values: [ListOfScalarValues(overview:yahoo_news, first_gesture_scroll_update_latency, ms, None, important=True, description=First gesture scroll update latency measures the time it takes to process the very first gesture scroll update input event. The first scroll gesture can often get delayed by work related to page loading., tir_label=None, std=None, improvement_direction=down, grouping_keys={})]",
        "story_tags": [],
        "units": "ms",
        "page_id": 0,
        "description": "First gesture scroll update latency measures the time it takes to process the very first gesture scroll update input event. The first scroll gesture can often get delayed by work related to page loading."
      },
      "overview:js_poster_circle": {
        "std": null,
        "name": "first_gesture_scroll_update_latency",
        "type": "list_of_scalar_values",
        "improvement_direction": "down",
        "important": true,
        "values": null,
        "none_value_reason": "Merging values containing a None value results in a None value. None values: [ListOfScalarValues(overview:js_poster_circle, first_gesture_scroll_update_latency, ms, None, important=True, description=First gesture scroll update latency measures the time it takes to process the very first gesture scroll update input event. The first scroll gesture can often get delayed by work related to page loading., tir_label=None, std=None, improvement_direction=down, grouping_keys={})]",
        "story_tags": [],
        "units": "ms",
        "page_id": 1,
        "description": "First gesture scroll update latency measures the time it takes to process the very first gesture scroll update input event. The first scroll gesture can often get delayed by work related to page loading."
      },
      "summary": {
        "std": null,
        "name": "first_gesture_scroll_update_latency",
        "improvement_direction": "down",
        "important": true,
        "values": null,
        "none_value_reason": "Merging values containing a None value results in a None value. None values: [ListOfScalarValues(overview:yahoo_news, first_gesture_scroll_update_latency, ms, None, important=True, description=First gesture scroll update latency measures the time it takes to process the very first gesture scroll update input event. The first scroll gesture can often get delayed by work related to page loading., tir_label=None, std=None, improvement_direction=down, grouping_keys={}), ListOfScalarValues(overview:js_poster_circle, first_gesture_scroll_update_latency, ms, None, important=True, description=First gesture scroll update latency measures the time it takes to process the very first gesture scroll update input event. The first scroll gesture can often get delayed by work related to page loading., tir_label=None, std=None, improvement_direction=down, grouping_keys={})]",
        "units": "ms",
        "type": "list_of_scalar_values",
        "description": "First gesture scroll update latency measures the time it takes to process the very first gesture scroll update input event. The first scroll gesture can often get delayed by work related to page loading."
      }
    },
    "percentage_smooth": {
      "overview:yahoo_news": {
        "std": 0.0,
        "name": "percentage_smooth",
        "type": "list_of_scalar_values",
        "improvement_direction": "up",
        "important": true,
        "values": [
          75.555555555555557
        ],
        "story_tags": [],
        "units": "score",
        "page_id": 0,
        "description": "Percentage of frames that were hitting 60 fps."
      },
      "overview:js_poster_circle": {
        "std": 0.0,
        "name": "percentage_smooth",
        "type": "list_of_scalar_values",
        "improvement_direction": "up",
        "important": true,
        "values": [
          95.412844036697251
        ],
        "story_tags": [],
        "units": "score",
        "page_id": 1,
        "description": "Percentage of frames that were hitting 60 fps."
      },
      "summary": {
        "std": 0.0,
        "name": "percentage_smooth",
        "improvement_direction": "up",
        "important": true,
        "values": [
          75.555555555555557,
          95.412844036697251
        ],
        "units": "score",
        "type": "list_of_scalar_values",
        "description": "Percentage of frames that were hitting 60 fps."
      }
    },
    "ui_frame_times": {
      "overview:yahoo_news": {
        "std": 33.271513534902979,
        "name": "ui_frame_times",
        "type": "list_of_scalar_values",
        "improvement_direction": "down",
        "important": true,
        "values": [
          16.689000000013039,
          16.643999999971129,
          16.685999999986961,
          16.662000000011176,
          16.663999999989755,
          16.666000000026543,
          16.663999999989755,
          16.668000000005122,
          16.667000000015832,
          16.665999999968335,
          16.659000000043306,
          16.653999999980442,
          33.341000000014901,
          16.668999999994412,
          33.334999999962747,
          16.665000000037253,
          16.660999999963678,
          16.651000000012573,
          16.684000000008382,
          16.646999999997206,
          16.664999999979045,
          16.666000000026543,
          16.675999999977648,
          16.668000000005122,
          43.090999999956694,
          83.324000000022352,
          155.56400000001304,
          49.975999999966007,
          16.684000000008382,
          16.666000000026543,
          16.647999999986496,
          16.663999999989755,
          16.664999999979045,
          16.665000000037253,
          16.667000000015832,
          16.663999999989755,
          33.331999999994878,
          16.664999999979045,
          16.668000000005122,
          16.663999999989755,
          16.663999999989755,
          1.4250000000465661,
          16.057999999960884,
          16.635000000009313,
          16.934000000008382,
          16.705000000016298,
          18.038999999989755,
          198.48800000001211,
          3.6069999999599531,
          49.981000000028871,
          50.007999999972526,
          33.333000000042375
        ],
        "story_tags": [],
        "units": "ms",
        "page_id": 0,
        "description": "List of raw frame times, helpful to understand the other metrics."
      },
      "overview:js_poster_circle": {
        "std": 18.426094612203563,
        "name": "ui_frame_times",
        "type": "list_of_scalar_values",
        "improvement_direction": "down",
        "important": true,
        "values": [
          33.332999999984168,
          33.330000000016298,
          33.326999999990221,
          33.333999999973457,
          33.332000000053085,
          33.328999999968801,
          33.330000000016298,
          33.315000000002328,
          66.657999999995809,
          33.352000000013504,
          33.33099999994738,
          33.309000000008382,
          33.346000000019558,
          33.330000000016298,
          33.336000000010245,
          33.352000000013504,
          49.989999999990687,
          50.003000000026077,
          49.993000000016764,
          116.65999999997439,
          16.664999999979045,
          16.662000000011176,
          33.332999999984168,
          16.663000000000466,
          16.661000000021886,
          16.669999999983702,
          16.667000000015832,
          16.647999999986496,
          16.678000000014435,
          16.670999999972992,
          16.665000000037253,
          16.660999999963678,
          16.665000000037253,
          16.649999999965075,
          16.683000000019092,
          16.661000000021886,
          16.668999999994412,
          16.663000000000466,
          16.668999999994412,
          16.676999999966938,
          16.649000000033993,
          16.664999999979045
        ],
        "story_tags": [],
        "units": "ms",
        "page_id": 1,
        "description": "List of raw frame times, helpful to understand the other metrics."
      },
      "summary": {
        "std": 27.658050507991064,
        "name": "ui_frame_times",
        "improvement_direction": "down",
        "important": true,
        "values": [
          16.689000000013039,
          16.643999999971129,
          16.685999999986961,
          16.662000000011176,
          16.663999999989755,
          16.666000000026543,
          16.663999999989755,
          16.668000000005122,
          16.667000000015832,
          16.665999999968335,
          16.659000000043306,
          16.653999999980442,
          33.341000000014901,
          16.668999999994412,
          33.334999999962747,
          16.665000000037253,
          16.660999999963678,
          16.651000000012573,
          16.684000000008382,
          16.646999999997206,
          16.664999999979045,
          16.666000000026543,
          16.675999999977648,
          16.668000000005122,
          43.090999999956694,
          83.324000000022352,
          155.56400000001304,
          49.975999999966007,
          16.684000000008382,
          16.666000000026543,
          16.647999999986496,
          16.663999999989755,
          16.664999999979045,
          16.665000000037253,
          16.667000000015832,
          16.663999999989755,
          33.331999999994878,
          16.664999999979045,
          16.668000000005122,
          16.663999999989755,
          16.663999999989755,
          1.4250000000465661,
          16.057999999960884,
          16.635000000009313,
          16.934000000008382,
          16.705000000016298,
          18.038999999989755,
          198.48800000001211,
          3.6069999999599531,
          49.981000000028871,
          50.007999999972526,
          33.333000000042375,
          33.332999999984168,
          33.330000000016298,
          33.326999999990221,
          33.333999999973457,
          33.332000000053085,
          33.328999999968801,
          33.330000000016298,
          33.315000000002328,
          66.657999999995809,
          33.352000000013504,
          33.33099999994738,
          33.309000000008382,
          33.346000000019558,
          33.330000000016298,
          33.336000000010245,
          33.352000000013504,
          49.989999999990687,
          50.003000000026077,
          49.993000000016764,
          116.65999999997439,
          16.664999999979045,
          16.662000000011176,
          33.332999999984168,
          16.663000000000466,
          16.661000000021886,
          16.669999999983702,
          16.667000000015832,
          16.647999999986496,
          16.678000000014435,
          16.670999999972992,
          16.665000000037253,
          16.660999999963678,
          16.665000000037253,
          16.649999999965075,
          16.683000000019092,
          16.661000000021886,
          16.668999999994412,
          16.663000000000466,
          16.668999999994412,
          16.676999999966938,
          16.649000000033993,
          16.664999999979045
        ],
        "units": "ms",
        "type": "list_of_scalar_values",
        "description": "List of raw frame times, helpful to understand the other metrics."
      }
    },
    "mean_pixels_checkerboarded": {
      "overview:yahoo_news": {
        "std": 0.0,
        "name": "mean_pixels_checkerboarded",
        "type": "list_of_scalar_values",
        "improvement_direction": "down",
        "important": true,
        "values": [
          0.0
        ],
        "story_tags": [],
        "units": "percent",
        "page_id": 0,
        "description": "Percentage of pixels that were checkerboarded."
      },
      "overview:js_poster_circle": {
        "std": 0.0,
        "name": "mean_pixels_checkerboarded",
        "type": "list_of_scalar_values",
        "improvement_direction": "down",
        "important": true,
        "values": [
          0.0
        ],
        "story_tags": [],
        "units": "percent",
        "page_id": 1,
        "description": "Percentage of pixels that were checkerboarded."
      },
      "summary": {
        "std": 0.0,
        "name": "mean_pixels_checkerboarded",
        "improvement_direction": "down",
        "important": true,
        "values": [
          0.0,
          0.0
        ],
        "units": "percent",
        "type": "list_of_scalar_values",
        "description": "Percentage of pixels that were checkerboarded."
      }
    },
    "queueing_durations": {
      "overview:yahoo_news": {
        "std": 17.152338022977659,
        "name": "queueing_durations",
        "type": "list_of_scalar_values",
        "improvement_direction": "down",
        "important": true,
        "values": [
          4.4729999999981374,
          25.482000000018161,
          17.132000000041444,
          14.722999999998137,
          33.203000000037719,
          11.04500000004191,
          38.508000000030734,
          64.114000000001397,
          21.386999999987893,
          8.1840000000083819,
          10.403999999980442,
          46.810999999986961,
          40.451000000000931,
          14.801999999966938,
          16.402000000001863,
          5.4299999999930151,
          2.5
        ],
        "story_tags": [],
        "units": "ms",
        "page_id": 0,
        "description": "The frame queueing duration quantifies how out of sync the compositor and renderer threads are. It is the amount of wall time that elapses between a ScheduledActionSendBeginMainFrame event in the compositor thread and the corresponding BeginMainFrame event in the main thread."
      },
      "overview:js_poster_circle": {
        "std": 0.057264425511763667,
        "name": "queueing_durations",
        "type": "list_of_scalar_values",
        "improvement_direction": "down",
        "important": true,
        "values": [
          0.11799999995855615,
          0.125,
          0.051999999966938049,
          0.13900000002468005,
          0.046999999962281436,
          0.033999999985098839,
          0.073000000033061951,
          0.086999999999534339,
          0.34799999999813735,
          0.048999999999068677,
          0.10499999998137355,
          0.077999999979510903,
          0.086999999999534339,
          0.056999999971594661,
          0.086999999999534339,
          0.054999999993015081,
          0.060999999986961484,
          0.11499999999068677,
          0.10700000001816079,
          0.058999999950174242,
          0.064000000013038516,
          0.047000000020489097,
          0.065000000002328306,
          0.039999999979045242,
          0.032999999995809048,
          0.05200000002514571,
          0.060999999986961484,
          0.084000000031664968,
          0.14000000001396984,
          0.040999999968335032,
          0.05400000000372529,
          0.027999999991152436,
          0.043000000005122274,
          0.027000000001862645,
          0.029999999969732016,
          0.024999999965075403,
          0.10300000000279397,
          0.11000000004423782,
          0.091999999945983291,
          0.097000000008847564,
          0.085000000020954758,
          0.12400000001071021,
          0.14600000000791624,
          0.091999999945983291,
          0.23800000001210719,
          0.10700000001816079,
          0.13000000000465661,
          0.075000000011641532,
          0.13400000002002344,
          0.13100000005215406,
          0.1000000000349246,
          0.095000000030267984,
          0.12199999997392297,
          0.097999999998137355,
          0.086999999999534339,
          0.10099999996600673,
          0.093999999982770532,
          0.10500000003958121,
          0.096000000019557774,
          0.0909999999566935,
          0.048000000009778887,
          0.33699999999953434,
          0.032999999995809048,
          0.10499999998137355,
          0.13000000000465661,
          0.095000000030267984,
          0.2029999999795109,
          0.086999999999534339,
          0.17300000000977889,
          0.057999999960884452,
          0.11799999995855615,
          0.39500000001862645,
          0.031000000017229468,
          0.070000000006984919,
          0.047999999951571226,
          0.11499999999068677,
          0.10800000000745058,
          0.10499999998137355,
          0.065000000002328306,
          0.10300000000279397,
          0.086000000010244548,
          0.088999999978113919,
          0.12800000002607703,
          0.086999999999534339,
          0.07299999997485429,
          0.12699999997857958,
          0.097999999998137355,
          0.097000000008847564,
          0.11999999999534339,
          0.099999999976716936,
          0.08800000004703179,
          0.086999999999534339,
          0.068999999959487468,
          0.12199999997392297,
          0.030999999959021807,
          0.036000000021886081,
          0.11400000000139698,
          0.12900000001536682,
          0.065999999991618097,
          0.088999999978113919,
          0.091000000014901161,
          0.082999999984167516,
          0.086999999999534339,
          0.086000000010244548,
          0.083000000042375177,
          0.11000000004423782,
          0.097999999998137355,
          0.084000000031664968,
          0.087999999988824129,
          0.13400000002002344
        ],
        "story_tags": [],
        "units": "ms",
        "page_id": 1,
        "description": "The frame queueing duration quantifies how out of sync the compositor and renderer threads are. It is the amount of wall time that elapses between a ScheduledActionSendBeginMainFrame event in the compositor thread and the corresponding BeginMainFrame event in the main thread."
      },
      "summary": {
        "std": 6.1368399873840902,
        "name": "queueing_durations",
        "improvement_direction": "down",
        "important": true,
        "values": [
          4.4729999999981374,
          25.482000000018161,
          17.132000000041444,
          14.722999999998137,
          33.203000000037719,
          11.04500000004191,
          38.508000000030734,
          64.114000000001397,
          21.386999999987893,
          8.1840000000083819,
          10.403999999980442,
          46.810999999986961,
          40.451000000000931,
          14.801999999966938,
          16.402000000001863,
          5.4299999999930151,
          2.5,
          0.11799999995855615,
          0.125,
          0.051999999966938049,
          0.13900000002468005,
          0.046999999962281436,
          0.033999999985098839,
          0.073000000033061951,
          0.086999999999534339,
          0.34799999999813735,
          0.048999999999068677,
          0.10499999998137355,
          0.077999999979510903,
          0.086999999999534339,
          0.056999999971594661,
          0.086999999999534339,
          0.054999999993015081,
          0.060999999986961484,
          0.11499999999068677,
          0.10700000001816079,
          0.058999999950174242,
          0.064000000013038516,
          0.047000000020489097,
          0.065000000002328306,
          0.039999999979045242,
          0.032999999995809048,
          0.05200000002514571,
          0.060999999986961484,
          0.084000000031664968,
          0.14000000001396984,
          0.040999999968335032,
          0.05400000000372529,
          0.027999999991152436,
          0.043000000005122274,
          0.027000000001862645,
          0.029999999969732016,
          0.024999999965075403,
          0.10300000000279397,
          0.11000000004423782,
          0.091999999945983291,
          0.097000000008847564,
          0.085000000020954758,
          0.12400000001071021,
          0.14600000000791624,
          0.091999999945983291,
          0.23800000001210719,
          0.10700000001816079,
          0.13000000000465661,
          0.075000000011641532,
          0.13400000002002344,
          0.13100000005215406,
          0.1000000000349246,
          0.095000000030267984,
          0.12199999997392297,
          0.097999999998137355,
          0.086999999999534339,
          0.10099999996600673,
          0.093999999982770532,
          0.10500000003958121,
          0.096000000019557774,
          0.0909999999566935,
          0.048000000009778887,
          0.33699999999953434,
          0.032999999995809048,
          0.10499999998137355,
          0.13000000000465661,
          0.095000000030267984,
          0.2029999999795109,
          0.086999999999534339,
          0.17300000000977889,
          0.057999999960884452,
          0.11799999995855615,
          0.39500000001862645,
          0.031000000017229468,
          0.070000000006984919,
          0.047999999951571226,
          0.11499999999068677,
          0.10800000000745058,
          0.10499999998137355,
          0.065000000002328306,
          0.10300000000279397,
          0.086000000010244548,
          0.088999999978113919,
          0.12800000002607703,
          0.086999999999534339,
          0.07299999997485429,
          0.12699999997857958,
          0.097999999998137355,
          0.097000000008847564,
          0.11999999999534339,
          0.099999999976716936,
          0.08800000004703179,
          0.086999999999534339,
          0.068999999959487468,
          0.12199999997392297,
          0.030999999959021807,
          0.036000000021886081,
          0.11400000000139698,
          0.12900000001536682,
          0.065999999991618097,
          0.088999999978113919,
          0.091000000014901161,
          0.082999999984167516,
          0.086999999999534339,
          0.086000000010244548,
          0.083000000042375177,
          0.11000000004423782,
          0.097999999998137355,
          0.084000000031664968,
          0.087999999988824129,
          0.13400000002002344
        ],
        "units": "ms",
        "type": "list_of_scalar_values",
        "description": "The frame queueing duration quantifies how out of sync the compositor and renderer threads are. It is the amount of wall time that elapses between a ScheduledActionSendBeginMainFrame event in the compositor thread and the corresponding BeginMainFrame event in the main thread."
      }
    },
    "ui_percentage_smooth": {
      "overview:yahoo_news": {
        "std": 0.0,
        "name": "ui_percentage_smooth",
        "type": "list_of_scalar_values",
        "improvement_direction": "up",
        "important": true,
        "values": [
          76.923076923076934
        ],
        "story_tags": [],
        "units": "score",
        "page_id": 0,
        "description": "Percentage of frames that were hitting 60 fps."
      },
      "overview:js_poster_circle": {
        "std": 0.0,
        "name": "ui_percentage_smooth",
        "type": "list_of_scalar_values",
        "improvement_direction": "up",
        "important": true,
        "values": [
          50.0
        ],
        "story_tags": [],
        "units": "score",
        "page_id": 1,
        "description": "Percentage of frames that were hitting 60 fps."
      },
      "summary": {
        "std": 0.0,
        "name": "ui_percentage_smooth",
        "improvement_direction": "up",
        "important": true,
        "values": [
          76.923076923076934,
          50.0
        ],
        "units": "score",
        "type": "list_of_scalar_values",
        "description": "Percentage of frames that were hitting 60 fps."
      }
    },
    "mean_pixels_approximated": {
      "overview:yahoo_news": {
        "std": 0.0,
        "name": "mean_pixels_approximated",
        "type": "list_of_scalar_values",
        "improvement_direction": "down",
        "important": true,
        "values": [
          0.0
        ],
        "story_tags": [],
        "units": "percent",
        "page_id": 0,
        "description": "Percentage of pixels that were approximated (checkerboarding, low-resolution tiles, etc.)."
      },
      "overview:js_poster_circle": {
        "std": 0.0,
        "name": "mean_pixels_approximated",
        "type": "list_of_scalar_values",
        "improvement_direction": "down",
        "important": true,
        "values": [
          0.0
        ],
        "story_tags": [],
        "units": "percent",
        "page_id": 1,
        "description": "Percentage of pixels that were approximated (checkerboarding, low-resolution tiles, etc.)."
      },
      "summary": {
        "std": 0.0,
        "name": "mean_pixels_approximated",
        "improvement_direction": "down",
        "important": true,
        "values": [
          0.0,
          0.0
        ],
        "units": "percent",
        "type": "list_of_scalar_values",
        "description": "Percentage of pixels that were approximated (checkerboarding, low-resolution tiles, etc.)."
      }
    },
    "frame_times": {
      "overview:yahoo_news": {
        "std": 54.413535975813893,
        "name": "frame_times",
        "type": "list_of_scalar_values",
        "improvement_direction": "down",
        "important": true,
        "values": [
          16.689000000013039,
          16.643999999971129,
          16.685999999986961,
          16.662000000011176,
          16.663999999989755,
          16.666000000026543,
          16.663999999989755,
          16.668000000005122,
          16.667000000015832,
          16.665999999968335,
          16.659000000043306,
          16.653999999980442,
          33.341000000014901,
          16.668999999994412,
          33.334999999962747,
          16.665000000037253,
          16.660999999963678,
          16.651000000012573,
          16.684000000008382,
          16.646999999997206,
          16.664999999979045,
          16.666000000026543,
          16.675999999977648,
          16.668000000005122,
          228.28100000001723,
          83.324000000022352,
          155.56400000001304,
          49.975999999966007,
          16.684000000008382,
          16.666000000026543,
          16.647999999986496,
          16.663999999989755,
          16.664999999979045,
          16.665000000037253,
          16.667000000015832,
          16.663999999989755,
          33.331999999994878,
          16.664999999979045,
          16.668000000005122,
          16.663999999989755,
          16.663999999989755,
          287.89100000000326,
          49.981000000028871,
          50.007999999972526,
          33.333000000042375
        ],
        "story_tags": [],
        "units": "ms",
        "page_id": 0,
        "description": "List of raw frame times, helpful to understand the other metrics."
      },
      "overview:js_poster_circle": {
        "std": 9.6080026906435023,
        "name": "frame_times",
        "type": "list_of_scalar_values",
        "improvement_direction": "down",
        "important": true,
        "values": [
          16.663000000000466,
          66.666000000026543,
          16.659999999974389,
          16.673000000009779,
          16.657999999995809,
          16.672000000020489,
          16.664999999979045,
          16.662000000011176,
          16.662000000011176,
          16.671999999962281,
          16.662000000011176,
          16.67000000004191,
          16.661999999952968,
          16.667000000015832,
          16.658999999985099,
          16.671000000031199,
          16.663000000000466,
          16.652000000001863,
          16.659999999974389,
          16.666000000026543,
          16.664999999979045,
          16.667000000015832,
          16.663000000000466,
          16.689000000013039,
          16.664999999979045,
          16.665999999968335,
          16.667000000015832,
          16.641999999992549,
          16.684000000008382,
          16.662000000011176,
          16.668999999994412,
          16.661000000021886,
          16.648999999975786,
          16.687000000034459,
          16.658999999985099,
          16.669999999983702,
          16.666000000026543,
          16.663000000000466,
          16.663999999989755,
          16.670999999972992,
          16.663000000000466,
          16.665000000037253,
          16.659999999974389,
          16.669999999983702,
          16.662000000011176,
          16.672000000020489,
          16.658999999985099,
          16.667000000015832,
          16.669999999983702,
          16.663999999989755,
          16.665000000037253,
          16.664999999979045,
          16.664999999979045,
          16.663999999989755,
          16.651000000012573,
          16.679000000003725,
          16.652000000001863,
          16.661000000021886,
          16.650999999954365,
          16.684999999997672,
          16.667000000015832,
          16.666000000026543,
          33.323999999964144,
          16.652999999991152,
          33.350000000034925,
          16.663999999989755,
          33.329000000027008,
          16.660999999963678,
          99.99900000001071,
          16.664999999979045,
          16.662000000011176,
          16.662000000011176,
          16.670999999972992,
          16.663000000000466,
          16.661000000021886,
          16.669999999983702,
          16.667000000015832,
          16.647999999986496,
          16.678000000014435,
          16.670999999972992,
          16.665000000037253,
          16.660999999963678,
          16.665000000037253,
          16.649999999965075,
          16.683000000019092,
          16.661000000021886,
          16.668999999994412,
          16.663000000000466,
          16.668999999994412,
          16.676999999966938,
          16.649000000033993,
          16.664999999979045,
          16.663999999989755,
          16.67000000004191,
          16.664999999979045,
          16.663000000000466,
          16.652999999991152,
          16.682000000029802,
          16.663000000000466,
          16.663999999989755,
          16.665999999968335,
          16.668000000005122,
          16.662000000011176,
          16.666000000026543,
          16.663000000000466,
          16.668999999994412,
          16.665999999968335,
          16.663999999989755,
          16.665000000037253
        ],
        "story_tags": [],
        "units": "ms",
        "page_id": 1,
        "description": "List of raw frame times, helpful to understand the other metrics."
      },
      "summary": {
        "std": 30.37555812582114,
        "name": "frame_times",
        "improvement_direction": "down",
        "important": true,
        "values": [
          16.689000000013039,
          16.643999999971129,
          16.685999999986961,
          16.662000000011176,
          16.663999999989755,
          16.666000000026543,
          16.663999999989755,
          16.668000000005122,
          16.667000000015832,
          16.665999999968335,
          16.659000000043306,
          16.653999999980442,
          33.341000000014901,
          16.668999999994412,
          33.334999999962747,
          16.665000000037253,
          16.660999999963678,
          16.651000000012573,
          16.684000000008382,
          16.646999999997206,
          16.664999999979045,
          16.666000000026543,
          16.675999999977648,
          16.668000000005122,
          228.28100000001723,
          83.324000000022352,
          155.56400000001304,
          49.975999999966007,
          16.684000000008382,
          16.666000000026543,
          16.647999999986496,
          16.663999999989755,
          16.664999999979045,
          16.665000000037253,
          16.667000000015832,
          16.663999999989755,
          33.331999999994878,
          16.664999999979045,
          16.668000000005122,
          16.663999999989755,
          16.663999999989755,
          287.89100000000326,
          49.981000000028871,
          50.007999999972526,
          33.333000000042375,
          16.663000000000466,
          66.666000000026543,
          16.659999999974389,
          16.673000000009779,
          16.657999999995809,
          16.672000000020489,
          16.664999999979045,
          16.662000000011176,
          16.662000000011176,
          16.671999999962281,
          16.662000000011176,
          16.67000000004191,
          16.661999999952968,
          16.667000000015832,
          16.658999999985099,
          16.671000000031199,
          16.663000000000466,
          16.652000000001863,
          16.659999999974389,
          16.666000000026543,
          16.664999999979045,
          16.667000000015832,
          16.663000000000466,
          16.689000000013039,
          16.664999999979045,
          16.665999999968335,
          16.667000000015832,
          16.641999999992549,
          16.684000000008382,
          16.662000000011176,
          16.668999999994412,
          16.661000000021886,
          16.648999999975786,
          16.687000000034459,
          16.658999999985099,
          16.669999999983702,
          16.666000000026543,
          16.663000000000466,
          16.663999999989755,
          16.670999999972992,
          16.663000000000466,
          16.665000000037253,
          16.659999999974389,
          16.669999999983702,
          16.662000000011176,
          16.672000000020489,
          16.658999999985099,
          16.667000000015832,
          16.669999999983702,
          16.663999999989755,
          16.665000000037253,
          16.664999999979045,
          16.664999999979045,
          16.663999999989755,
          16.651000000012573,
          16.679000000003725,
          16.652000000001863,
          16.661000000021886,
          16.650999999954365,
          16.684999999997672,
          16.667000000015832,
          16.666000000026543,
          33.323999999964144,
          16.652999999991152,
          33.350000000034925,
          16.663999999989755,
          33.329000000027008,
          16.660999999963678,
          99.99900000001071,
          16.664999999979045,
          16.662000000011176,
          16.662000000011176,
          16.670999999972992,
          16.663000000000466,
          16.661000000021886,
          16.669999999983702,
          16.667000000015832,
          16.647999999986496,
          16.678000000014435,
          16.670999999972992,
          16.665000000037253,
          16.660999999963678,
          16.665000000037253,
          16.649999999965075,
          16.683000000019092,
          16.661000000021886,
          16.668999999994412,
          16.663000000000466,
          16.668999999994412,
          16.676999999966938,
          16.649000000033993,
          16.664999999979045,
          16.663999999989755,
          16.67000000004191,
          16.664999999979045,
          16.663000000000466,
          16.652999999991152,
          16.682000000029802,
          16.663000000000466,
          16.663999999989755,
          16.665999999968335,
          16.668000000005122,
          16.662000000011176,
          16.666000000026543,
          16.663000000000466,
          16.668999999994412,
          16.665999999968335,
          16.663999999989755,
          16.665000000037253
        ],
        "units": "ms",
        "type": "list_of_scalar_values",
        "description": "List of raw frame times, helpful to understand the other metrics."
      }
    },
    "ui_mean_frame_time": {
      "overview:yahoo_news": {
        "std": 0.0,
        "name": "ui_mean_frame_time",
        "type": "list_of_scalar_values",
        "improvement_direction": "down",
        "important": true,
        "values": [
          27.303999999999998
        ],
        "story_tags": [],
        "units": "ms",
        "page_id": 0,
        "description": "Arithmetic mean of frame times."
      },
      "overview:js_poster_circle": {
        "std": 0.0,
        "name": "ui_mean_frame_time",
        "type": "list_of_scalar_values",
        "improvement_direction": "down",
        "important": true,
        "values": [
          28.966000000000001
        ],
        "story_tags": [],
        "units": "ms",
        "page_id": 1,
        "description": "Arithmetic mean of frame times."
      },
      "summary": {
        "std": 0.0,
        "name": "ui_mean_frame_time",
        "improvement_direction": "down",
        "important": true,
        "values": [
          27.303999999999998,
          28.966000000000001
        ],
        "units": "ms",
        "type": "list_of_scalar_values",
        "description": "Arithmetic mean of frame times."
      }
    }
  },
  "next_version": "0.2",
  "benchmark_name": "cros_ui_smoothness"
}
