# device: Elan Touchpad
# bit: 0B 00 00 00 00 00 00 00
# key: 00 00 00 00 00 00 00 00 00 00 00 00 00 00 00 00 00 00 00 00 00 00 00 00 00 00 00 00 00 00 00 00 00 00 01 00 00 00 00 00 20 E5 00 00 00 00 00 00 00 00 00 00 00 00 00 00 00 00 00 00 00 00 00 00 00 00 00 00 00 00 00 00 00 00 00 00 00 00 00 00 00 00 00 00 00 00 00 00 00 00 00 00 00 00 00 00
# rel: 00 00 00 00 00 00 00 00
# abs: 03 00 00 11 00 80 63 06
# led: 00 00 00 00 00 00 00 00
# prp: 05 00 00 00 00 00 00 00
# absinfo: 0 0 2948 0 0 31
# absinfo: 1 0 1604 0 0 31
# absinfo: 24 0 255 0 0 0
# absinfo: 28 0 15 0 0 0
# absinfo: 47 0 4 0 0 0
# absinfo: 48 0 2400 0 0 0
# absinfo: 49 0 2325 0 0 0
# absinfo: 53 0 2948 0 0 31
# absinfo: 54 0 1604 0 0 31
# absinfo: 57 0 65535 0 0 0
# absinfo: 58 0 255 0 0 0
E: 14596.368749 0003 002f 0
E: 14596.368749 0003 0030 210
E: 14596.368749 0003 0031 195
E: 14596.368749 0003 0032 0
E: 14596.368749 0003 0033 0
E: 14596.368749 0003 0034 0
E: 14596.368749 0003 0035 1397
E: 14596.368749 0003 0036 950
E: 14596.368749 0003 0037 0
E: 14596.368749 0003 0038 0
E: 14596.368749 0003 0039 71
E: 14596.368749 0003 003a 44
E: 14596.368749 0003 003b 0
E: 14596.368749 0003 002f 1
E: 14596.368749 0003 0039 -1
E: 14596.368749 0003 002f 2
E: 14596.368749 0003 0039 -1
E: 14596.368749 0003 002f 3
E: 14596.368749 0003 0039 -1
E: 14596.368749 0003 002f 4
E: 14596.368749 0003 0039 -1
E: 14596.368749 0003 002f 0
E: 14596.368749 0001 0145 1
E: 14596.368749 0001 014a 1
E: 14596.368749 0000 0000 0
E: 14596.376775 0003 003a 45
E: 14596.376775 0003 0018 45
E: 14596.376775 0000 0000 0
E: 14596.396303 0003 003a 46
E: 14596.396303 0003 0018 46
E: 14596.396303 0000 0000 0
E: 14596.415843 0003 003a 47
E: 14596.415843 0003 0018 47
E: 14596.415843 0000 0000 0
E: 14596.425799 0003 003a 48
E: 14596.425799 0003 0018 48
E: 14596.425799 0000 0000 0
E: 14596.445164 0003 003a 49
E: 14596.445164 0003 0018 49
E: 14596.445164 0000 0000 0
E: 14596.533161 0003 0035 1393
E: 14596.533161 0003 0036 947
E: 14596.533161 0003 0000 1393
E: 14596.533161 0003 0001 947
E: 14596.533161 0000 0000 0
E: 14596.543124 0003 0035 1391
E: 14596.543124 0003 0036 943
E: 14596.543124 0003 003a 51
E: 14596.543124 0003 0000 1391
E: 14596.543124 0003 0001 943
E: 14596.543124 0003 0018 51
E: 14596.543124 0000 0000 0
E: 14596.552700 0003 0035 1389
E: 14596.552700 0003 0036 937
E: 14596.552700 0003 0000 1389
E: 14596.552700 0003 0001 937
E: 14596.552700 0000 0000 0
E: 14596.562672 0003 0035 1387
E: 14596.562672 0003 0036 929
E: 14596.562672 0003 003a 52
E: 14596.562672 0003 0000 1387
E: 14596.562672 0003 0001 929
E: 14596.562672 0003 0018 52
E: 14596.562672 0000 0000 0
E: 14596.572263 0003 0035 1384
E: 14596.572263 0003 0036 919
E: 14596.572263 0003 003a 55
E: 14596.572263 0003 0000 1384
E: 14596.572263 0003 0001 919
E: 14596.572263 0003 0018 55
E: 14596.572263 0000 0000 0
E: 14596.581838 0003 0035 1380
E: 14596.581838 0003 0036 901
E: 14596.581838 0003 0000 1380
E: 14596.581838 0003 0001 901
E: 14596.581838 0000 0000 0
E: 14596.591771 0003 0035 1377
E: 14596.591771 0003 0036 874
E: 14596.591771 0003 003a 53
E: 14596.591771 0003 0000 1377
E: 14596.591771 0003 0001 874
E: 14596.591771 0003 0018 53
E: 14596.591771 0000 0000 0
E: 14596.601807 0003 0035 1373
E: 14596.601807 0003 0036 822
E: 14596.601807 0003 003a 55
E: 14596.601807 0003 0000 1373
E: 14596.601807 0003 0001 822
E: 14596.601807 0003 0018 55
E: 14596.601807 0000 0000 0
E: 14596.611765 0003 0035 1383
E: 14596.611765 0003 0036 729
E: 14596.611765 0003 0030 280
E: 14596.611765 0003 0000 1383
E: 14596.611765 0003 0001 729
E: 14596.611765 0000 0000 0
E: 14596.621078 0003 0035 1409
E: 14596.621078 0003 0036 581
E: 14596.621078 0003 003a 57
E: 14596.621078 0003 0000 1409
E: 14596.621078 0003 0001 581
E: 14596.621078 0003 0018 57
E: 14596.621078 0000 0000 0
E: 14596.631029 0003 0035 1423
E: 14596.631029 0003 0036 477
E: 14596.631029 0003 003a 56
E: 14596.631029 0003 0000 1423
E: 14596.631029 0003 0001 477
E: 14596.631029 0003 0018 56
E: 14596.631029 0000 0000 0
E: 14596.640953 0003 0035 1447
E: 14596.640953 0003 0036 376
E: 14596.640953 0003 0000 1447
E: 14596.640953 0003 0001 376
E: 14596.640953 0000 0000 0
E: 14596.650711 0003 0035 1472
E: 14596.650711 0003 0036 278
E: 14596.650711 0003 003a 62
E: 14596.650711 0003 001c 4
E: 14596.650711 0003 0031 260
E: 14596.650711 0003 0000 1472
E: 14596.650711 0003 0001 278
E: 14596.650711 0003 0018 62
E: 14596.650711 0000 0000 0
E: 14596.659990 0003 0035 1499
E: 14596.659990 0003 0036 188
E: 14596.659990 0003 003a 55
E: 14596.659990 0003 001c 3
E: 14596.659990 0003 0030 210
E: 14596.659990 0003 0031 195
E: 14596.659990 0003 0000 1499
E: 14596.659990 0003 0001 188
E: 14596.659990 0003 0018 55
E: 14596.659990 0000 0000 0
E: 14596.669879 0003 001c 1
E: 14596.669879 0003 0030 70
E: 14596.669879 0003 0031 65
E: 14596.669879 0000 0000 0
E: 14596.679753 0003 0039 -1
E: 14596.679753 0001 014a 0
E: 14596.679753 0001 0145 0
E: 14596.679753 0003 0018 0
E: 14596.679753 0000 0000 0
E: 14599.017402 0003 0039 72
E: 14599.017402 0003 0035 1371
E: 14599.017402 0003 0036 765
E: 14599.017402 0003 003a 48
E: 14599.017402 0003 001c 3
E: 14599.017402 0003 0030 210
E: 14599.017402 0003 0031 195
E: 14599.017402 0001 014a 1
E: 14599.017402 0001 0145 1
E: 14599.017402 0003 0000 1371
E: 14599.017402 0003 0001 765
E: 14599.017402 0003 0018 48
E: 14599.017402 0000 0000 0
E: 14599.026444 0003 003a 50
E: 14599.026444 0003 0018 50
E: 14599.026444 0000 0000 0
E: 14599.036599 0003 003a 51
E: 14599.036599 0003 0018 51
E: 14599.036599 0000 0000 0
E: 14599.046049 0003 003a 52
E: 14599.046049 0003 0018 52
E: 14599.046049 0000 0000 0
E: 14599.056376 0003 003a 53
E: 14599.056376 0003 0018 53
E: 14599.056376 0000 0000 0
E: 14599.065541 0003 003a 54
E: 14599.065541 0003 0018 54
E: 14599.065541 0000 0000 0
E: 14599.075344 0003 003a 55
E: 14599.075344 0003 0018 55
E: 14599.075344 0000 0000 0
E: 14599.094892 0003 003a 56
E: 14599.094892 0003 0018 56
E: 14599.094892 0000 0000 0
E: 14599.222040 0003 003a 57
E: 14599.222040 0003 0018 57
E: 14599.222040 0000 0000 0
E: 14599.261082 0003 0035 1379
E: 14599.261082 0003 0036 766
E: 14599.261082 0003 0000 1379
E: 14599.261082 0003 0001 766
E: 14599.261082 0000 0000 0
E: 14599.271090 0003 0035 1395
E: 14599.271090 0003 0000 1395
E: 14599.271090 0000 0000 0
E: 14599.280663 0003 0035 1420
E: 14599.280663 0003 003a 60
E: 14599.280663 0003 001c 4
E: 14599.280663 0003 0030 260
E: 14599.280663 0003 0031 210
E: 14599.280663 0003 0000 1420
E: 14599.280663 0003 0018 60
E: 14599.280663 0000 0000 0
E: 14599.290390 0003 0035 1479
E: 14599.290390 0003 003a 59
E: 14599.290390 0003 001c 3
E: 14599.290390 0003 0030 210
E: 14599.290390 0003 0031 195
E: 14599.290390 0003 0000 1479
E: 14599.290390 0003 0018 59
E: 14599.290390 0000 0000 0
E: 14599.300167 0003 0035 1584
E: 14599.300167 0003 003a 60
E: 14599.300167 0003 001c 4
E: 14599.300167 0003 0030 260
E: 14599.300167 0003 0031 210
E: 14599.300167 0003 0000 1584
E: 14599.300167 0003 0018 60
E: 14599.300167 0000 0000 0
E: 14599.309965 0003 0035 1770
E: 14599.309965 0003 0036 777
E: 14599.309965 0003 003a 57
E: 14599.309965 0003 0000 1770
E: 14599.309965 0003 0001 777
E: 14599.309965 0003 0018 57
E: 14599.309965 0000 0000 0
E: 14599.319929 0003 0035 1845
E: 14599.319929 0003 0036 788
E: 14599.319929 0003 003a 53
E: 14599.319929 0003 001c 3
E: 14599.319929 0003 0030 210
E: 14599.319929 0003 0031 195
E: 14599.319929 0003 0000 1845
E: 14599.319929 0003 0001 788
E: 14599.319929 0003 0018 53
E: 14599.319929 0000 0000 0
E: 14599.329503 0003 0035 1958
E: 14599.329503 0003 0036 798
E: 14599.329503 0003 003a 51
E: 14599.329503 0003 0000 1958
E: 14599.329503 0003 0001 798
E: 14599.329503 0003 0018 51
E: 14599.329503 0000 0000 0
E: 14599.339471 0003 0035 2106
E: 14599.339471 0003 0036 817
E: 14599.339471 0003 003a 42
E: 14599.339471 0003 0000 2106
E: 14599.339471 0003 0001 817
E: 14599.339471 0003 0018 42
E: 14599.339471 0000 0000 0
E: 14599.349044 0003 0035 2254
E: 14599.349044 0003 0036 836
E: 14599.349044 0003 001c 1
E: 14599.349044 0003 0030 70
E: 14599.349044 0003 0031 65
E: 14599.349044 0003 0000 2254
E: 14599.349044 0003 0001 836
E: 14599.349044 0000 0000 0
E: 14599.359054 0003 0039 -1
E: 14599.359054 0001 014a 0
E: 14599.359054 0001 0145 0
E: 14599.359054 0003 0018 0
E: 14599.359054 0000 0000 0
E: 14600.386135 0003 0039 73
E: 14600.386135 0003 0035 1405
E: 14600.386135 0003 0036 782
E: 14600.386135 0003 003a 49
E: 14600.386135 0003 001c 3
E: 14600.386135 0003 0030 210
E: 14600.386135 0003 0031 195
E: 14600.386135 0001 014a 1
E: 14600.386135 0001 0145 1
E: 14600.386135 0003 0000 1405
E: 14600.386135 0003 0001 782
E: 14600.386135 0003 0018 49
E: 14600.386135 0000 0000 0
E: 14600.395057 0003 003a 50
E: 14600.395057 0003 0018 50
E: 14600.395057 0000 0000 0
E: 14600.415062 0003 003a 51
E: 14600.415062 0003 0018 51
E: 14600.415062 0000 0000 0
E: 14600.434399 0003 003a 52
E: 14600.434399 0003 0018 52
E: 14600.434399 0000 0000 0
E: 14600.463812 0003 003a 53
E: 14600.463812 0003 0018 53
E: 14600.463812 0000 0000 0
E: 14600.502905 0003 003a 54
E: 14600.502905 0003 0018 54
E: 14600.502905 0000 0000 0
E: 14600.551918 0003 003a 55
E: 14600.551918 0003 0018 55
E: 14600.551918 0000 0000 0
E: 14600.610432 0003 003a 56
E: 14600.610432 0003 0018 56
E: 14600.610432 0000 0000 0
E: 14600.629931 0003 0035 1406
E: 14600.629931 0003 0036 787
E: 14600.629931 0003 0000 1406
E: 14600.629931 0003 0001 787
E: 14600.629931 0000 0000 0
E: 14600.639725 0003 0035 1407
E: 14600.639725 0003 0036 793
E: 14600.639725 0003 0000 1407
E: 14600.639725 0003 0001 793
E: 14600.639725 0000 0000 0
E: 14600.649695 0003 0035 1409
E: 14600.649695 0003 0036 806
E: 14600.649695 0003 0000 1409
E: 14600.649695 0003 0001 806
E: 14600.649695 0000 0000 0
E: 14600.659264 0003 0035 1408
E: 14600.659264 0003 0036 840
E: 14600.659264 0003 003a 59
E: 14600.659264 0003 0030 280
E: 14600.659264 0003 0000 1408
E: 14600.659264 0003 0001 840
E: 14600.659264 0003 0018 59
E: 14600.659264 0000 0000 0
E: 14600.669261 0003 0035 1394
E: 14600.669261 0003 0036 934
E: 14600.669261 0003 003a 56
E: 14600.669261 0003 0000 1394
E: 14600.669261 0003 0001 934
E: 14600.669261 0003 0018 56
E: 14600.669261 0000 0000 0
E: 14600.679068 0003 0035 1378
E: 14600.679068 0003 0036 1187
E: 14600.679068 0003 003a 51
E: 14600.679068 0003 0000 1378
E: 14600.679068 0003 0001 1187
E: 14600.679068 0003 0018 51
E: 14600.679068 0000 0000 0
E: 14600.688623 0003 0035 1393
E: 14600.688623 0003 0036 1338
E: 14600.688623 0003 003a 47
E: 14600.688623 0003 0030 210
E: 14600.688623 0003 0000 1393
E: 14600.688623 0003 0001 1338
E: 14600.688623 0003 0018 47
E: 14600.688623 0000 0000 0
E: 14600.698036 0003 001c 1
E: 14600.698036 0003 0030 70
E: 14600.698036 0003 0031 65
E: 14600.698036 0000 0000 0
E: 14600.708232 0003 0039 -1
E: 14600.708232 0001 014a 0
E: 14600.708232 0001 0145 0
E: 14600.708232 0003 0018 0
E: 14600.708232 0000 0000 0
E: 14601.697404 0003 0039 74
E: 14601.697404 0003 0035 1395
E: 14601.697404 0003 0036 774
E: 14601.697404 0003 003a 49
E: 14601.697404 0003 001c 3
E: 14601.697404 0003 0030 210
E: 14601.697404 0003 0031 195
E: 14601.697404 0001 014a 1
E: 14601.697404 0001 0145 1
E: 14601.697404 0003 0000 1395
E: 14601.697404 0003 0001 774
E: 14601.697404 0003 0018 49
E: 14601.697404 0000 0000 0
E: 14601.705751 0003 003a 50
E: 14601.705751 0003 0018 50
E: 14601.705751 0000 0000 0
E: 14601.734917 0003 003a 51
E: 14601.734917 0003 0018 51
E: 14601.734917 0000 0000 0
E: 14601.744549 0003 003a 52
E: 14601.744549 0003 0018 52
E: 14601.744549 0000 0000 0
E: 14601.773969 0003 003a 53
E: 14601.773969 0003 0018 53
E: 14601.773969 0000 0000 0
E: 14601.803324 0003 003a 54
E: 14601.803324 0003 0018 54
E: 14601.803324 0000 0000 0
E: 14601.852210 0003 003a 55
E: 14601.852210 0003 0018 55
E: 14601.852210 0000 0000 0
E: 14601.959780 0003 003a 56
E: 14601.959780 0003 0018 56
E: 14601.959780 0000 0000 0
E: 14602.018490 0003 0035 1385
E: 14602.018490 0003 0036 773
E: 14602.018490 0003 003a 58
E: 14602.018490 0003 001c 4
E: 14602.018490 0003 0030 260
E: 14602.018490 0003 0031 210
E: 14602.018490 0003 0000 1385
E: 14602.018490 0003 0001 773
E: 14602.018490 0003 0018 58
E: 14602.018490 0000 0000 0
E: 14602.028627 0003 0035 1361
E: 14602.028627 0003 0036 770
E: 14602.028627 0003 003a 63
E: 14602.028627 0003 0000 1361
E: 14602.028627 0003 0001 770
E: 14602.028627 0003 0018 63
E: 14602.028627 0000 0000 0
E: 14602.038212 0003 0035 1306
E: 14602.038212 0003 0036 765
E: 14602.038212 0003 003a 61
E: 14602.038212 0003 0000 1306
E: 14602.038212 0003 0001 765
E: 14602.038212 0003 0018 61
E: 14602.038212 0000 0000 0
E: 14602.048034 0003 0035 1115
E: 14602.048034 0003 0036 763
E: 14602.048034 0003 003a 63
E: 14602.048034 0003 0000 1115
E: 14602.048034 0003 0001 763
E: 14602.048034 0003 0018 63
E: 14602.048034 0000 0000 0
E: 14602.057330 0003 0035 974
E: 14602.057330 0003 0036 775
E: 14602.057330 0003 003a 57
E: 14602.057330 0003 001c 3
E: 14602.057330 0003 0030 210
E: 14602.057330 0003 0031 195
E: 14602.057330 0003 0000 974
E: 14602.057330 0003 0001 775
E: 14602.057330 0003 0018 57
E: 14602.057330 0000 0000 0
E: 14602.067239 0003 0035 851
E: 14602.067239 0003 0036 812
E: 14602.067239 0003 003a 60
E: 14602.067239 0003 001c 4
E: 14602.067239 0003 0030 280
E: 14602.067239 0003 0031 260
E: 14602.067239 0003 0000 851
E: 14602.067239 0003 0001 812
E: 14602.067239 0003 0018 60
E: 14602.067239 0000 0000 0
E: 14602.077218 0003 0035 739
E: 14602.077218 0003 0036 846
E: 14602.077218 0003 0000 739
E: 14602.077218 0003 0001 846
E: 14602.077218 0000 0000 0
E: 14602.087123 0003 0035 625
E: 14602.087123 0003 0036 888
E: 14602.087123 0003 003a 55
E: 14602.087123 0003 0030 260
E: 14602.087123 0003 0031 210
E: 14602.087123 0003 0000 625
E: 14602.087123 0003 0001 888
E: 14602.087123 0003 0018 55
E: 14602.087123 0000 0000 0
E: 14602.096771 0003 0035 511
E: 14602.096771 0003 0036 930
E: 14602.096771 0003 001c 1
E: 14602.096771 0003 0030 70
E: 14602.096771 0003 0031 65
E: 14602.096771 0003 0000 511
E: 14602.096771 0003 0001 930
E: 14602.096771 0000 0000 0
E: 14602.106754 0003 0039 -1
E: 14602.106754 0001 014a 0
E: 14602.106754 0001 0145 0
E: 14602.106754 0003 0018 0
E: 14602.106754 0000 0000 0
E: 14602.107254 0003 002f 0
E: 14602.107254 0003 0039 -1
E: 14602.107254 0003 002f 1
E: 14602.107254 0003 0039 -1
E: 14602.107254 0003 002f 2
E: 14602.107254 0003 0039 -1
E: 14602.107254 0003 002f 3
E: 14602.107254 0003 0039 -1
E: 14602.107254 0003 002f 4
E: 14602.107254 0003 0039 -1
