E: 87271.768950 0003 002f 0
E: 87271.768950 0003 0030 0
E: 87271.768950 0003 0031 0
E: 87271.768950 0003 0032 0
E: 87271.768950 0003 0033 0
E: 87271.768950 0003 0034 0
E: 87271.768950 0003 0035 821
E: 87271.768950 0003 0036 268
E: 87271.768950 0003 0037 0
E: 87271.768950 0003 0038 0
E: 87271.768950 0003 0039 755
E: 87271.768950 0003 003a 33
E: 87271.768950 0003 003b 0
E: 87271.768950 0003 002f 1
E: 87271.768950 0003 0039 -1
E: 87271.768950 0003 002f 2
E: 87271.768950 0003 0039 -1
E: 87271.768950 0003 002f 3
E: 87271.768950 0003 0039 -1
E: 87271.768950 0003 002f 4
E: 87271.768950 0003 0039 -1
E: 87271.768950 0003 002f 5
E: 87271.768950 0003 0039 -1
E: 87271.768950 0003 002f 6
E: 87271.768950 0003 0039 -1
E: 87271.768950 0003 002f 7
E: 87271.768950 0003 0039 -1
E: 87271.768950 0003 002f 8
E: 87271.768950 0003 0039 -1
E: 87271.768950 0003 002f 9
E: 87271.768950 0003 0039 -1
E: 87271.768950 0003 002f 10
E: 87271.768950 0003 0039 -1
E: 87271.768950 0003 002f 11
E: 87271.768950 0003 0039 -1
E: 87271.768950 0003 002f 12
E: 87271.768950 0003 0039 -1
E: 87271.768950 0003 002f 13
E: 87271.768950 0003 0039 -1
E: 87271.768950 0003 002f 14
E: 87271.768950 0003 0039 -1
E: 87271.768950 0003 002f 0
E: 87271.768950 0001 0145 1
E: 87271.768950 0001 014a 1
E: 87271.768950 0000 0000 0
E: 87271.780851 0003 003a 34
E: 87271.780862 0003 0018 34
E: 87271.780863 0000 0000 0
E: 87271.789469 0003 0035 820
E: 87271.789478 0003 0000 820
E: 87271.789479 0000 0000 0
E: 87271.807117 0003 0035 819
E: 87271.807118 0003 0036 267
E: 87271.807119 0003 003a 35
E: 87271.807127 0003 0000 819
E: 87271.807128 0003 0001 267
E: 87271.807128 0003 0018 35
E: 87271.807129 0000 0000 0
E: 87271.824655 0003 0036 266
E: 87271.824657 0003 003a 34
E: 87271.824665 0003 0001 266
E: 87271.824666 0003 0018 34
E: 87271.824667 0000 0000 0
E: 87271.833495 0003 0035 816
E: 87271.833497 0003 0036 262
E: 87271.833505 0003 0000 816
E: 87271.833506 0003 0001 262
E: 87271.833507 0000 0000 0
E: 87271.842402 0003 0035 811
E: 87271.842404 0003 0036 253
E: 87271.842404 0003 003a 35
E: 87271.842413 0003 0000 811
E: 87271.842414 0003 0001 253
E: 87271.842414 0003 0018 35
E: 87271.842415 0000 0000 0
E: 87271.851717 0003 0035 804
E: 87271.851718 0003 0036 248
E: 87271.851719 0003 003a 36
E: 87271.851728 0003 0000 804
E: 87271.851728 0003 0001 248
E: 87271.851729 0003 0018 36
E: 87271.851730 0000 0000 0
E: 87271.860585 0003 0035 799
E: 87271.860587 0003 0036 242
E: 87271.860595 0003 0000 799
E: 87271.860596 0003 0001 242
E: 87271.860597 0000 0000 0
E: 87271.869355 0003 0035 796
E: 87271.869357 0003 0036 235
E: 87271.869358 0003 003a 35
E: 87271.869366 0003 0000 796
E: 87271.869366 0003 0001 235
E: 87271.869367 0003 0018 35
E: 87271.869368 0000 0000 0
E: 87271.878133 0003 0035 790
E: 87271.878134 0003 0036 225
E: 87271.878135 0003 003a 37
E: 87271.878143 0003 0000 790
E: 87271.878143 0003 0001 225
E: 87271.878144 0003 0018 37
E: 87271.878145 0000 0000 0
E: 87271.886919 0003 0035 783
E: 87271.886920 0003 0036 216
E: 87271.886921 0003 003a 35
E: 87271.886930 0003 0000 783
E: 87271.886930 0003 0001 216
E: 87271.886931 0003 0018 35
E: 87271.886932 0000 0000 0
E: 87271.895682 0003 0035 774
E: 87271.895684 0003 0036 207
E: 87271.895684 0003 003a 37
E: 87271.895693 0003 0000 774
E: 87271.895694 0003 0001 207
E: 87271.895694 0003 0018 37
E: 87271.895695 0000 0000 0
E: 87271.904332 0003 0035 763
E: 87271.904334 0003 0036 198
E: 87271.904343 0003 0000 763
E: 87271.904343 0003 0001 198
E: 87271.904345 0000 0000 0
E: 87271.913142 0003 0035 753
E: 87271.913144 0003 0036 191
E: 87271.913144 0003 003a 38
E: 87271.913153 0003 0000 753
E: 87271.913153 0003 0001 191
E: 87271.913154 0003 0018 38
E: 87271.913155 0000 0000 0
E: 87271.921926 0003 0035 742
E: 87271.921928 0003 0036 183
E: 87271.921937 0003 0000 742
E: 87271.921938 0003 0001 183
E: 87271.921939 0000 0000 0
E: 87271.930862 0003 0035 731
E: 87271.930864 0003 0036 179
E: 87271.930873 0003 0000 731
E: 87271.930874 0003 0001 179
E: 87271.930875 0000 0000 0
E: 87271.939738 0003 0035 723
E: 87271.939740 0003 0036 174
E: 87271.939740 0003 003a 37
E: 87271.939749 0003 0000 723
E: 87271.939750 0003 0001 174
E: 87271.939750 0003 0018 37
E: 87271.939751 0000 0000 0
E: 87271.948614 0003 0035 714
E: 87271.948616 0003 0036 169
E: 87271.948625 0003 0000 714
E: 87271.948625 0003 0001 169
E: 87271.948627 0000 0000 0
E: 87271.957293 0003 0035 703
E: 87271.957295 0003 0036 164
E: 87271.957295 0003 003a 39
E: 87271.957304 0003 0000 703
E: 87271.957305 0003 0001 164
E: 87271.957305 0003 0018 39
E: 87271.957306 0000 0000 0
E: 87271.965970 0003 0035 690
E: 87271.965972 0003 0036 160
E: 87271.965981 0003 0000 690
E: 87271.965981 0003 0001 160
E: 87271.965982 0000 0000 0
E: 87271.974580 0003 0035 674
E: 87271.974581 0003 0036 157
E: 87271.974582 0003 003a 38
E: 87271.974590 0003 0000 674
E: 87271.974591 0003 0001 157
E: 87271.974591 0003 0018 38
E: 87271.974592 0000 0000 0
E: 87271.983432 0003 0035 660
E: 87271.983434 0003 0036 154
E: 87271.983434 0003 003a 40
E: 87271.983443 0003 0000 660
E: 87271.983444 0003 0001 154
E: 87271.983444 0003 0018 40
E: 87271.983445 0000 0000 0
E: 87271.992268 0003 0035 647
E: 87271.992270 0003 0036 153
E: 87271.992270 0003 003a 41
E: 87271.992279 0003 0000 647
E: 87271.992280 0003 0001 153
E: 87271.992280 0003 0018 41
E: 87271.992291 0000 0000 0
E: 87272.001049 0003 0035 637
E: 87272.001051 0003 0036 151
E: 87272.001051 0003 003a 40
E: 87272.001060 0003 0000 637
E: 87272.001061 0003 0001 151
E: 87272.001061 0003 0018 40
E: 87272.001062 0000 0000 0
E: 87272.009834 0003 0035 622
E: 87272.009836 0003 003a 39
E: 87272.009844 0003 0000 622
E: 87272.009845 0003 0018 39
E: 87272.009846 0000 0000 0
E: 87272.018604 0003 0035 606
E: 87272.018606 0003 0036 153
E: 87272.018615 0003 0000 606
E: 87272.018615 0003 0001 153
E: 87272.018617 0000 0000 0
E: 87272.027254 0003 0035 587
E: 87272.027255 0003 0036 155
E: 87272.027256 0003 003a 40
E: 87272.027265 0003 0000 587
E: 87272.027265 0003 0001 155
E: 87272.027266 0003 0018 40
E: 87272.027267 0000 0000 0
E: 87272.036200 0003 0035 571
E: 87272.036202 0003 0036 159
E: 87272.036211 0003 0000 571
E: 87272.036211 0003 0001 159
E: 87272.036213 0000 0000 0
E: 87272.045235 0003 0035 559
E: 87272.045237 0003 0036 162
E: 87272.045238 0003 003a 41
E: 87272.045246 0003 0000 559
E: 87272.045247 0003 0001 162
E: 87272.045247 0003 0018 41
E: 87272.045248 0000 0000 0
E: 87272.053712 0003 0035 546
E: 87272.053714 0003 0036 165
E: 87272.053714 0003 003a 40
E: 87272.053723 0003 0000 546
E: 87272.053724 0003 0001 165
E: 87272.053724 0003 0018 40
E: 87272.053725 0000 0000 0
E: 87272.062586 0003 0035 528
E: 87272.062589 0003 0036 171
E: 87272.062598 0003 0000 528
E: 87272.062599 0003 0001 171
E: 87272.062600 0000 0000 0
E: 87272.071442 0003 0035 512
E: 87272.071443 0003 0036 176
E: 87272.071444 0003 003a 41
E: 87272.071453 0003 0000 512
E: 87272.071453 0003 0001 176
E: 87272.071454 0003 0018 41
E: 87272.071455 0000 0000 0
E: 87272.080219 0003 0035 499
E: 87272.080221 0003 0036 178
E: 87272.080222 0003 003a 42
E: 87272.080230 0003 0000 499
E: 87272.080231 0003 0001 178
E: 87272.080231 0003 0018 42
E: 87272.080232 0000 0000 0
E: 87272.089279 0003 0035 489
E: 87272.089280 0003 0036 182
E: 87272.089281 0003 003a 43
E: 87272.089290 0003 0000 489
E: 87272.089290 0003 0001 182
E: 87272.089291 0003 0018 43
E: 87272.089292 0000 0000 0
E: 87272.098492 0003 0035 481
E: 87272.098494 0003 0036 186
E: 87272.098504 0003 0000 481
E: 87272.098504 0003 0001 186
E: 87272.098505 0000 0000 0
E: 87272.107309 0003 0035 473
E: 87272.107310 0003 0036 191
E: 87272.107319 0003 0000 473
E: 87272.107319 0003 0001 191
E: 87272.107321 0000 0000 0
E: 87272.116229 0003 0035 466
E: 87272.116230 0003 0036 196
E: 87272.116231 0003 003a 42
E: 87272.116239 0003 0000 466
E: 87272.116240 0003 0001 196
E: 87272.116240 0003 0018 42
E: 87272.116241 0000 0000 0
E: 87272.125134 0003 0035 459
E: 87272.125136 0003 0036 202
E: 87272.125144 0003 0000 459
E: 87272.125145 0003 0001 202
E: 87272.125146 0000 0000 0
E: 87272.133794 0003 0035 452
E: 87272.133796 0003 0036 210
E: 87272.133805 0003 0000 452
E: 87272.133805 0003 0001 210
E: 87272.133807 0000 0000 0
E: 87272.142508 0003 0035 446
E: 87272.142509 0003 0036 217
E: 87272.142518 0003 0000 446
E: 87272.142519 0003 0001 217
E: 87272.142520 0000 0000 0
E: 87272.151108 0003 0035 441
E: 87272.151110 0003 0036 226
E: 87272.151110 0003 003a 41
E: 87272.151119 0003 0000 441
E: 87272.151120 0003 0001 226
E: 87272.151120 0003 0018 41
E: 87272.151121 0000 0000 0
E: 87272.159806 0003 0035 437
E: 87272.159807 0003 0036 236
E: 87272.159817 0003 0000 437
E: 87272.159817 0003 0001 236
E: 87272.159819 0000 0000 0
E: 87272.168645 0003 0035 434
E: 87272.168647 0003 0036 242
E: 87272.168648 0003 003a 42
E: 87272.168657 0003 0000 434
E: 87272.168657 0003 0001 242
E: 87272.168658 0003 0018 42
E: 87272.168659 0000 0000 0
E: 87272.177338 0003 0035 432
E: 87272.177340 0003 0036 248
E: 87272.177349 0003 0000 432
E: 87272.177349 0003 0001 248
E: 87272.177351 0000 0000 0
E: 87272.186101 0003 0035 429
E: 87272.186102 0003 0036 258
E: 87272.186102 0003 003a 41
E: 87272.186110 0003 0000 429
E: 87272.186111 0003 0001 258
E: 87272.186111 0003 0018 41
E: 87272.186112 0000 0000 0
E: 87272.194900 0003 0035 428
E: 87272.194901 0003 0036 269
E: 87272.194911 0003 0000 428
E: 87272.194912 0003 0001 269
E: 87272.194913 0000 0000 0
E: 87272.203483 0003 0036 281
E: 87272.203493 0003 0001 281
E: 87272.203494 0000 0000 0
E: 87272.212155 0003 0036 292
E: 87272.212166 0003 0001 292
E: 87272.212167 0000 0000 0
E: 87272.221164 0003 0036 300
E: 87272.221175 0003 0001 300
E: 87272.221176 0000 0000 0
E: 87272.229763 0003 0035 431
E: 87272.229765 0003 0036 306
E: 87272.229765 0003 003a 42
E: 87272.229776 0003 0000 431
E: 87272.229776 0003 0001 306
E: 87272.229777 0003 0018 42
E: 87272.229778 0000 0000 0
E: 87272.238574 0003 0035 436
E: 87272.238575 0003 0036 313
E: 87272.238583 0003 0000 436
E: 87272.238584 0003 0001 313
E: 87272.238585 0000 0000 0
E: 87272.247347 0003 0035 440
E: 87272.247349 0003 0036 317
E: 87272.247358 0003 0000 440
E: 87272.247359 0003 0001 317
E: 87272.247360 0000 0000 0
E: 87272.256198 0003 0035 446
E: 87272.256200 0003 0036 323
E: 87272.256200 0003 003a 41
E: 87272.256209 0003 0000 446
E: 87272.256210 0003 0001 323
E: 87272.256210 0003 0018 41
E: 87272.256211 0000 0000 0
E: 87272.264909 0003 0035 452
E: 87272.264910 0003 0036 328
E: 87272.264911 0003 003a 42
E: 87272.264920 0003 0000 452
E: 87272.264920 0003 0001 328
E: 87272.264921 0003 0018 42
E: 87272.264922 0000 0000 0
E: 87272.273675 0003 0035 461
E: 87272.273676 0003 0036 335
E: 87272.273677 0003 003a 41
E: 87272.273685 0003 0000 461
E: 87272.273685 0003 0001 335
E: 87272.273686 0003 0018 41
E: 87272.273687 0000 0000 0
E: 87272.282505 0003 0035 467
E: 87272.282507 0003 0036 339
E: 87272.282516 0003 0000 467
E: 87272.282517 0003 0001 339
E: 87272.282518 0000 0000 0
E: 87272.291419 0003 0035 473
E: 87272.291421 0003 0036 343
E: 87272.291422 0003 003a 42
E: 87272.291431 0003 0000 473
E: 87272.291431 0003 0001 343
E: 87272.291432 0003 0018 42
E: 87272.291433 0000 0000 0
E: 87272.300071 0003 0035 480
E: 87272.300072 0003 0036 346
E: 87272.300073 0003 003a 43
E: 87272.300078 0003 0000 480
E: 87272.300079 0003 0001 346
E: 87272.300079 0003 0018 43
E: 87272.300080 0000 0000 0
E: 87272.309064 0003 0035 489
E: 87272.309066 0003 0036 349
E: 87272.309066 0003 003a 42
E: 87272.309072 0003 0000 489
E: 87272.309072 0003 0001 349
E: 87272.309072 0003 0018 42
E: 87272.309073 0000 0000 0
E: 87272.317654 0003 0035 503
E: 87272.317655 0003 0036 352
E: 87272.317656 0003 003a 41
E: 87272.317665 0003 0000 503
E: 87272.317665 0003 0001 352
E: 87272.317666 0003 0018 41
E: 87272.317667 0000 0000 0
E: 87272.326393 0003 0035 516
E: 87272.326395 0003 003a 40
E: 87272.326403 0003 0000 516
E: 87272.326404 0003 0018 40
E: 87272.326405 0000 0000 0
E: 87272.335397 0003 0035 530
E: 87272.335399 0003 003a 41
E: 87272.335408 0003 0000 530
E: 87272.335409 0003 0018 41
E: 87272.335410 0000 0000 0
E: 87272.344232 0003 0035 545
E: 87272.344243 0003 0000 545
E: 87272.344244 0000 0000 0
E: 87272.352841 0003 0035 556
E: 87272.352842 0003 0036 350
E: 87272.352851 0003 0000 556
E: 87272.352852 0003 0001 350
E: 87272.352853 0000 0000 0
E: 87272.361670 0003 0035 566
E: 87272.361672 0003 0036 346
E: 87272.361680 0003 0000 566
E: 87272.361681 0003 0001 346
E: 87272.361682 0000 0000 0
E: 87272.370434 0003 0035 578
E: 87272.370436 0003 0036 341
E: 87272.370436 0003 003a 40
E: 87272.370445 0003 0000 578
E: 87272.370446 0003 0001 341
E: 87272.370446 0003 0018 40
E: 87272.370447 0000 0000 0
E: 87272.379138 0003 0035 591
E: 87272.379139 0003 0036 336
E: 87272.379148 0003 0000 591
E: 87272.379148 0003 0001 336
E: 87272.379150 0000 0000 0
E: 87272.387810 0003 0035 603
E: 87272.387812 0003 0036 329
E: 87272.387812 0003 003a 41
E: 87272.387821 0003 0000 603
E: 87272.387821 0003 0001 329
E: 87272.387822 0003 0018 41
E: 87272.387823 0000 0000 0
E: 87272.396714 0003 0035 617
E: 87272.396716 0003 0036 324
E: 87272.396716 0003 003a 40
E: 87272.396725 0003 0000 617
E: 87272.396725 0003 0001 324
E: 87272.396726 0003 0018 40
E: 87272.396727 0000 0000 0
E: 87272.405693 0003 0035 626
E: 87272.405694 0003 0036 317
E: 87272.405695 0003 003a 41
E: 87272.405704 0003 0000 626
E: 87272.405704 0003 0001 317
E: 87272.405705 0003 0018 41
E: 87272.405706 0000 0000 0
E: 87272.414669 0003 0035 635
E: 87272.414670 0003 0036 312
E: 87272.414679 0003 0000 635
E: 87272.414679 0003 0001 312
E: 87272.414680 0000 0000 0
E: 87272.423654 0003 0035 642
E: 87272.423656 0003 0036 305
E: 87272.423656 0003 003a 40
E: 87272.423664 0003 0000 642
E: 87272.423665 0003 0001 305
E: 87272.423666 0003 0018 40
E: 87272.423666 0000 0000 0
E: 87272.432615 0003 0035 649
E: 87272.432617 0003 0036 298
E: 87272.432617 0003 003a 41
E: 87272.432626 0003 0000 649
E: 87272.432627 0003 0001 298
E: 87272.432628 0003 0018 41
E: 87272.432629 0000 0000 0
E: 87272.441476 0003 0035 657
E: 87272.441478 0003 0036 288
E: 87272.441478 0003 003a 39
E: 87272.441487 0003 0000 657
E: 87272.441488 0003 0001 288
E: 87272.441488 0003 0018 39
E: 87272.441489 0000 0000 0
E: 87272.450089 0003 0035 664
E: 87272.450091 0003 0036 278
E: 87272.450092 0003 003a 40
E: 87272.450101 0003 0000 664
E: 87272.450102 0003 0001 278
E: 87272.450102 0003 0018 40
E: 87272.450103 0000 0000 0
E: 87272.458912 0003 0035 672
E: 87272.458914 0003 0036 267
E: 87272.458914 0003 003a 39
E: 87272.458923 0003 0000 672
E: 87272.458924 0003 0001 267
E: 87272.458924 0003 0018 39
E: 87272.458925 0000 0000 0
E: 87272.467680 0003 0035 678
E: 87272.467682 0003 0036 258
E: 87272.467683 0003 003a 40
E: 87272.467691 0003 0000 678
E: 87272.467692 0003 0001 258
E: 87272.467693 0003 0018 40
E: 87272.467693 0000 0000 0
E: 87272.476495 0003 0035 684
E: 87272.476497 0003 0036 251
E: 87272.476497 0003 003a 41
E: 87272.476506 0003 0000 684
E: 87272.476506 0003 0001 251
E: 87272.476507 0003 0018 41
E: 87272.476508 0000 0000 0
E: 87272.485325 0003 0035 688
E: 87272.485327 0003 0036 243
E: 87272.485327 0003 003a 40
E: 87272.485337 0003 0000 688
E: 87272.485337 0003 0001 243
E: 87272.485338 0003 0018 40
E: 87272.485339 0000 0000 0
E: 87272.493986 0003 0035 689
E: 87272.493988 0003 0036 236
E: 87272.493996 0003 0000 689
E: 87272.493997 0003 0001 236
E: 87272.493998 0000 0000 0
E: 87272.502697 0003 0035 691
E: 87272.502699 0003 0036 229
E: 87272.502708 0003 0000 691
E: 87272.502709 0003 0001 229
E: 87272.502710 0000 0000 0
E: 87272.511278 0003 0036 220
E: 87272.511279 0003 003a 39
E: 87272.511288 0003 0001 220
E: 87272.511289 0003 0018 39
E: 87272.511290 0000 0000 0
E: 87272.519838 0003 0036 210
E: 87272.519849 0003 0001 210
E: 87272.519850 0000 0000 0
E: 87272.528729 0003 0036 201
E: 87272.528731 0003 003a 40
E: 87272.528740 0003 0001 201
E: 87272.528740 0003 0018 40
E: 87272.528741 0000 0000 0
E: 87272.537663 0003 0035 686
E: 87272.537665 0003 0036 194
E: 87272.537674 0003 0000 686
E: 87272.537674 0003 0001 194
E: 87272.537676 0000 0000 0
E: 87272.546342 0003 0035 681
E: 87272.546343 0003 0036 186
E: 87272.546352 0003 0000 681
E: 87272.546353 0003 0001 186
E: 87272.546354 0000 0000 0
E: 87272.555149 0003 0035 674
E: 87272.555151 0003 0036 181
E: 87272.555151 0003 003a 39
E: 87272.555160 0003 0000 674
E: 87272.555161 0003 0001 181
E: 87272.555162 0003 0018 39
E: 87272.555163 0000 0000 0
E: 87272.563938 0003 0035 668
E: 87272.563940 0003 0036 172
E: 87272.563940 0003 003a 40
E: 87272.563949 0003 0000 668
E: 87272.563949 0003 0001 172
E: 87272.563950 0003 0018 40
E: 87272.563951 0000 0000 0
E: 87272.572700 0003 0035 662
E: 87272.572702 0003 0036 165
E: 87272.572702 0003 003a 41
E: 87272.572711 0003 0000 662
E: 87272.572712 0003 0001 165
E: 87272.572712 0003 0018 41
E: 87272.572714 0000 0000 0
E: 87272.581591 0003 0035 655
E: 87272.581593 0003 0036 155
E: 87272.581594 0003 003a 40
E: 87272.581603 0003 0000 655
E: 87272.581603 0003 0001 155
E: 87272.581604 0003 0018 40
E: 87272.581605 0000 0000 0
E: 87272.590396 0003 0035 648
E: 87272.590398 0003 0036 147
E: 87272.590407 0003 0000 648
E: 87272.590407 0003 0001 147
E: 87272.590408 0000 0000 0
E: 87272.599306 0003 0035 642
E: 87272.599308 0003 0036 139
E: 87272.599308 0003 003a 41
E: 87272.599318 0003 0000 642
E: 87272.599318 0003 0001 139
E: 87272.599319 0003 0018 41
E: 87272.599320 0000 0000 0
E: 87272.608359 0003 0035 635
E: 87272.608361 0003 0036 133
E: 87272.608370 0003 0000 635
E: 87272.608371 0003 0001 133
E: 87272.608372 0000 0000 0
E: 87272.617456 0003 0035 628
E: 87272.617457 0003 0036 128
E: 87272.617466 0003 0000 628
E: 87272.617466 0003 0001 128
E: 87272.617468 0000 0000 0
E: 87272.626507 0003 0035 617
E: 87272.626509 0003 0036 125
E: 87272.626509 0003 003a 40
E: 87272.626518 0003 0000 617
E: 87272.626519 0003 0001 125
E: 87272.626520 0003 0018 40
E: 87272.626521 0000 0000 0
E: 87272.635320 0003 0035 604
E: 87272.635322 0003 0036 119
E: 87272.635322 0003 003a 41
E: 87272.635331 0003 0000 604
E: 87272.635332 0003 0001 119
E: 87272.635332 0003 0018 41
E: 87272.635333 0000 0000 0
E: 87272.644338 0003 0035 591
E: 87272.644339 0003 0036 117
E: 87272.644340 0003 003a 40
E: 87272.644349 0003 0000 591
E: 87272.644349 0003 0001 117
E: 87272.644350 0003 0018 40
E: 87272.644351 0000 0000 0
E: 87272.653594 0003 0035 580
E: 87272.653596 0003 0036 114
E: 87272.653596 0003 003a 43
E: 87272.653605 0003 0000 580
E: 87272.653606 0003 0001 114
E: 87272.653606 0003 0018 43
E: 87272.653607 0000 0000 0
E: 87272.662479 0003 0035 569
E: 87272.662481 0003 0036 108
E: 87272.662482 0003 003a 41
E: 87272.662491 0003 0000 569
E: 87272.662491 0003 0001 108
E: 87272.662492 0003 0018 41
E: 87272.662493 0000 0000 0
E: 87272.671580 0003 0035 559
E: 87272.671582 0003 0036 104
E: 87272.671591 0003 0000 559
E: 87272.671592 0003 0001 104
E: 87272.671593 0000 0000 0
E: 87272.680473 0003 0035 550
E: 87272.680475 0003 0036 101
E: 87272.680475 0003 003a 42
E: 87272.680484 0003 0000 550
E: 87272.680484 0003 0001 101
E: 87272.680485 0003 0018 42
E: 87272.680486 0000 0000 0
E: 87272.689427 0003 0035 536
E: 87272.689428 0003 0036 99
E: 87272.689438 0003 0000 536
E: 87272.689438 0003 0001 99
E: 87272.689440 0000 0000 0
E: 87272.698127 0003 0035 523
E: 87272.698129 0003 0036 96
E: 87272.698130 0003 003a 41
E: 87272.698138 0003 0000 523
E: 87272.698139 0003 0001 96
E: 87272.698139 0003 0018 41
E: 87272.698140 0000 0000 0
E: 87272.707304 0003 0035 508
E: 87272.707315 0003 0000 508
E: 87272.707316 0000 0000 0
E: 87272.716176 0003 0035 495
E: 87272.716177 0003 0036 95
E: 87272.716178 0003 003a 43
E: 87272.716186 0003 0000 495
E: 87272.716187 0003 0001 95
E: 87272.716187 0003 0018 43
E: 87272.716188 0000 0000 0
E: 87272.725176 0003 0035 483
E: 87272.725178 0003 0036 93
E: 87272.725178 0003 003a 42
E: 87272.725187 0003 0000 483
E: 87272.725188 0003 0001 93
E: 87272.725188 0003 0018 42
E: 87272.725189 0000 0000 0
E: 87272.734069 0003 0035 475
E: 87272.734071 0003 0036 95
E: 87272.734079 0003 0000 475
E: 87272.734080 0003 0001 95
E: 87272.734081 0000 0000 0
E: 87272.743061 0003 0035 463
E: 87272.743066 0003 0000 463
E: 87272.743067 0000 0000 0
E: 87272.752094 0003 0035 448
E: 87272.752095 0003 0036 101
E: 87272.752101 0003 0000 448
E: 87272.752101 0003 0001 101
E: 87272.752102 0000 0000 0
E: 87272.761114 0003 0035 434
E: 87272.761115 0003 0036 104
E: 87272.761115 0003 003a 44
E: 87272.761121 0003 0000 434
E: 87272.761121 0003 0001 104
E: 87272.761122 0003 0018 44
E: 87272.761122 0000 0000 0
E: 87272.770147 0003 0035 421
E: 87272.770149 0003 0036 110
E: 87272.770149 0003 003a 43
E: 87272.770158 0003 0000 421
E: 87272.770158 0003 0001 110
E: 87272.770159 0003 0018 43
E: 87272.770160 0000 0000 0
E: 87272.779421 0003 0035 410
E: 87272.779423 0003 0036 116
E: 87272.779423 0003 003a 42
E: 87272.779432 0003 0000 410
E: 87272.779433 0003 0001 116
E: 87272.779433 0003 0018 42
E: 87272.779434 0000 0000 0
E: 87272.788601 0003 0035 402
E: 87272.788603 0003 0036 120
E: 87272.788612 0003 0000 402
E: 87272.788613 0003 0001 120
E: 87272.788614 0000 0000 0
E: 87272.797709 0003 0035 396
E: 87272.797711 0003 0036 125
E: 87272.797720 0003 0000 396
E: 87272.797721 0003 0001 125
E: 87272.797722 0000 0000 0
E: 87272.806570 0003 0035 389
E: 87272.806571 0003 0036 131
E: 87272.806572 0003 003a 43
E: 87272.806581 0003 0000 389
E: 87272.806581 0003 0001 131
E: 87272.806582 0003 0018 43
E: 87272.806583 0000 0000 0
E: 87272.815523 0003 0035 379
E: 87272.815525 0003 0036 138
E: 87272.815525 0003 003a 42
E: 87272.815535 0003 0000 379
E: 87272.815535 0003 0001 138
E: 87272.815536 0003 0018 42
E: 87272.815537 0000 0000 0
E: 87272.824117 0003 0035 372
E: 87272.824119 0003 0036 146
E: 87272.824119 0003 003a 43
E: 87272.824128 0003 0000 372
E: 87272.824129 0003 0001 146
E: 87272.824129 0003 0018 43
E: 87272.824131 0000 0000 0
E: 87272.832798 0003 0035 365
E: 87272.832799 0003 0036 155
E: 87272.832800 0003 003a 44
E: 87272.832809 0003 0000 365
E: 87272.832810 0003 0001 155
E: 87272.832810 0003 0018 44
E: 87272.832811 0000 0000 0
E: 87272.841543 0003 0035 358
E: 87272.841544 0003 0036 163
E: 87272.841545 0003 003a 43
E: 87272.841553 0003 0000 358
E: 87272.841554 0003 0001 163
E: 87272.841554 0003 0018 43
E: 87272.841555 0000 0000 0
E: 87272.850278 0003 0035 353
E: 87272.850280 0003 0036 172
E: 87272.850290 0003 0000 353
E: 87272.850290 0003 0001 172
E: 87272.850291 0000 0000 0
E: 87272.859059 0003 0035 349
E: 87272.859061 0003 0036 179
E: 87272.859061 0003 003a 42
E: 87272.859070 0003 0000 349
E: 87272.859071 0003 0001 179
E: 87272.859071 0003 0018 42
E: 87272.859072 0000 0000 0
E: 87272.867918 0003 0035 346
E: 87272.867920 0003 0036 185
E: 87272.867921 0003 003a 43
E: 87272.867930 0003 0000 346
E: 87272.867931 0003 0001 185
E: 87272.867931 0003 0018 43
E: 87272.867932 0000 0000 0
E: 87272.876697 0003 0035 344
E: 87272.876698 0003 0036 190
E: 87272.876707 0003 0000 344
E: 87272.876708 0003 0001 190
E: 87272.876709 0000 0000 0
E: 87272.885595 0003 0035 343
E: 87272.885596 0003 0036 198
E: 87272.885605 0003 0000 343
E: 87272.885605 0003 0001 198
E: 87272.885607 0000 0000 0
E: 87272.894487 0003 0035 342
E: 87272.894489 0003 0036 209
E: 87272.894497 0003 0000 342
E: 87272.894498 0003 0001 209
E: 87272.894499 0000 0000 0
E: 87272.903417 0003 0036 216
E: 87272.903428 0003 0001 216
E: 87272.903430 0000 0000 0
E: 87272.912243 0003 0035 344
E: 87272.912245 0003 0036 226
E: 87272.912255 0003 0000 344
E: 87272.912255 0003 0001 226
E: 87272.912257 0000 0000 0
E: 87272.921067 0003 0035 347
E: 87272.921069 0003 0036 235
E: 87272.921078 0003 0000 347
E: 87272.921079 0003 0001 235
E: 87272.921080 0000 0000 0
E: 87272.929785 0003 0035 350
E: 87272.929787 0003 0036 242
E: 87272.929787 0003 003a 44
E: 87272.929797 0003 0000 350
E: 87272.929797 0003 0001 242
E: 87272.929798 0003 0018 44
E: 87272.929799 0000 0000 0
E: 87272.938614 0003 0035 355
E: 87272.938616 0003 0036 248
E: 87272.938625 0003 0000 355
E: 87272.938626 0003 0001 248
E: 87272.938627 0000 0000 0
E: 87272.947284 0003 0035 362
E: 87272.947286 0003 0036 257
E: 87272.947294 0003 0000 362
E: 87272.947295 0003 0001 257
E: 87272.947296 0000 0000 0
E: 87272.955988 0003 0035 369
E: 87272.955990 0003 0036 266
E: 87272.955990 0003 003a 43
E: 87272.955999 0003 0000 369
E: 87272.956000 0003 0001 266
E: 87272.956014 0003 0018 43
E: 87272.956015 0000 0000 0
E: 87272.964820 0003 0035 375
E: 87272.964822 0003 0036 277
E: 87272.964830 0003 0000 375
E: 87272.964831 0003 0001 277
E: 87272.964832 0000 0000 0
E: 87272.973530 0003 0035 381
E: 87272.973532 0003 0036 286
E: 87272.973541 0003 0000 381
E: 87272.973541 0003 0001 286
E: 87272.973542 0000 0000 0
E: 87272.982410 0003 0035 387
E: 87272.982412 0003 0036 295
E: 87272.982412 0003 003a 45
E: 87272.982421 0003 0000 387
E: 87272.982422 0003 0001 295
E: 87272.982422 0003 0018 45
E: 87272.982423 0000 0000 0
E: 87272.991547 0003 0035 394
E: 87272.991548 0003 0036 303
E: 87272.991549 0003 003a 43
E: 87272.991557 0003 0000 394
E: 87272.991558 0003 0001 303
E: 87272.991558 0003 0018 43
E: 87272.991559 0000 0000 0
E: 87273.000509 0003 0035 401
E: 87273.000511 0003 0036 308
E: 87273.000520 0003 0000 401
E: 87273.000520 0003 0001 308
E: 87273.000521 0000 0000 0
E: 87273.009479 0003 0035 408
E: 87273.009481 0003 0036 315
E: 87273.009481 0003 003a 42
E: 87273.009490 0003 0000 408
E: 87273.009491 0003 0001 315
E: 87273.009492 0003 0018 42
E: 87273.009493 0000 0000 0
E: 87273.018349 0003 0035 414
E: 87273.018351 0003 0036 322
E: 87273.018359 0003 0000 414
E: 87273.018360 0003 0001 322
E: 87273.018361 0000 0000 0
E: 87273.027288 0003 0035 426
E: 87273.027290 0003 0036 330
E: 87273.027290 0003 003a 43
E: 87273.027299 0003 0000 426
E: 87273.027300 0003 0001 330
E: 87273.027300 0003 0018 43
E: 87273.027301 0000 0000 0
E: 87273.035976 0003 0035 437
E: 87273.035978 0003 0036 336
E: 87273.035978 0003 003a 42
E: 87273.035987 0003 0000 437
E: 87273.035988 0003 0001 336
E: 87273.035988 0003 0018 42
E: 87273.035989 0000 0000 0
E: 87273.044415 0003 0035 449
E: 87273.044417 0003 0036 342
E: 87273.044426 0003 0000 449
E: 87273.044427 0003 0001 342
E: 87273.044428 0000 0000 0
E: 87273.053285 0003 0035 460
E: 87273.053287 0003 0036 347
E: 87273.053296 0003 0000 460
E: 87273.053297 0003 0001 347
E: 87273.053298 0000 0000 0
E: 87273.062114 0003 0035 471
E: 87273.062116 0003 0036 351
E: 87273.062117 0003 003a 44
E: 87273.062126 0003 0000 471
E: 87273.062127 0003 0001 351
E: 87273.062127 0003 0018 44
E: 87273.062129 0000 0000 0
E: 87273.070860 0003 0035 480
E: 87273.070862 0003 0036 354
E: 87273.070863 0003 003a 42
E: 87273.070873 0003 0000 480
E: 87273.070873 0003 0001 354
E: 87273.070874 0003 0018 42
E: 87273.070875 0000 0000 0
E: 87273.079660 0003 0035 494
E: 87273.079662 0003 0036 357
E: 87273.079662 0003 003a 41
E: 87273.079670 0003 0000 494
E: 87273.079671 0003 0001 357
E: 87273.079672 0003 0018 41
E: 87273.079672 0000 0000 0
E: 87273.088388 0003 0035 509
E: 87273.088397 0003 0000 509
E: 87273.088399 0000 0000 0
E: 87273.097206 0003 0035 527
E: 87273.097207 0003 0036 358
E: 87273.097216 0003 0000 527
E: 87273.097216 0003 0001 358
E: 87273.097217 0000 0000 0
E: 87273.106086 0003 0035 542
E: 87273.106087 0003 0036 359
E: 87273.106088 0003 003a 42
E: 87273.106096 0003 0000 542
E: 87273.106097 0003 0001 359
E: 87273.106097 0003 0018 42
E: 87273.106098 0000 0000 0
E: 87273.114950 0003 0035 555
E: 87273.114959 0003 0000 555
E: 87273.114960 0000 0000 0
E: 87273.123861 0003 0035 564
E: 87273.123862 0003 0036 358
E: 87273.123870 0003 0000 564
E: 87273.123871 0003 0001 358
E: 87273.123872 0000 0000 0
E: 87273.132754 0003 0035 578
E: 87273.132756 0003 0036 354
E: 87273.132756 0003 003a 40
E: 87273.132764 0003 0000 578
E: 87273.132765 0003 0001 354
E: 87273.132765 0003 0018 40
E: 87273.132766 0000 0000 0
E: 87273.141371 0003 0035 595
E: 87273.141373 0003 0036 351
E: 87273.141373 0003 003a 41
E: 87273.141382 0003 0000 595
E: 87273.141382 0003 0001 351
E: 87273.141383 0003 0018 41
E: 87273.141384 0000 0000 0
E: 87273.150000 0003 0035 610
E: 87273.150013 0003 0036 347
E: 87273.150013 0003 003a 42
E: 87273.150021 0003 0000 610
E: 87273.150022 0003 0001 347
E: 87273.150022 0003 0018 42
E: 87273.150023 0000 0000 0
E: 87273.158797 0003 0035 624
E: 87273.158798 0003 0036 340
E: 87273.158798 0003 003a 40
E: 87273.158809 0003 0000 624
E: 87273.158809 0003 0001 340
E: 87273.158810 0003 0018 40
E: 87273.158811 0000 0000 0
E: 87273.167596 0003 0035 635
E: 87273.167598 0003 0036 333
E: 87273.167606 0003 0000 635
E: 87273.167607 0003 0001 333
E: 87273.167608 0000 0000 0
E: 87273.176465 0003 0035 641
E: 87273.176467 0003 0036 328
E: 87273.176467 0003 003a 41
E: 87273.176475 0003 0000 641
E: 87273.176476 0003 0001 328
E: 87273.176477 0003 0018 41
E: 87273.176477 0000 0000 0
E: 87273.185385 0003 0035 649
E: 87273.185386 0003 0036 320
E: 87273.185394 0003 0000 649
E: 87273.185395 0003 0001 320
E: 87273.185396 0000 0000 0
E: 87273.194445 0003 0035 656
E: 87273.194447 0003 0036 314
E: 87273.194448 0003 003a 40
E: 87273.194457 0003 0000 656
E: 87273.194458 0003 0001 314
E: 87273.194458 0003 0018 40
E: 87273.194459 0000 0000 0
E: 87273.203207 0003 0035 666
E: 87273.203208 0003 0036 309
E: 87273.203209 0003 003a 41
E: 87273.203218 0003 0000 666
E: 87273.203219 0003 0001 309
E: 87273.203219 0003 0018 41
E: 87273.203220 0000 0000 0
E: 87273.211865 0003 0035 674
E: 87273.211867 0003 0036 302
E: 87273.211876 0003 0000 674
E: 87273.211876 0003 0001 302
E: 87273.211877 0000 0000 0
E: 87273.220643 0003 0035 681
E: 87273.220645 0003 0036 295
E: 87273.220653 0003 0000 681
E: 87273.220654 0003 0001 295
E: 87273.220655 0000 0000 0
E: 87273.229265 0003 0035 689
E: 87273.229266 0003 0036 284
E: 87273.229276 0003 0000 689
E: 87273.229276 0003 0001 284
E: 87273.229277 0000 0000 0
E: 87273.238247 0003 0035 694
E: 87273.238249 0003 0036 275
E: 87273.238249 0003 003a 40
E: 87273.238258 0003 0000 694
E: 87273.238259 0003 0001 275
E: 87273.238259 0003 0018 40
E: 87273.238260 0000 0000 0
E: 87273.247188 0003 0035 699
E: 87273.247190 0003 0036 264
E: 87273.247191 0003 003a 42
E: 87273.247200 0003 0000 699
E: 87273.247200 0003 0001 264
E: 87273.247201 0003 0018 42
E: 87273.247202 0000 0000 0
E: 87273.255956 0003 0035 704
E: 87273.255958 0003 0036 255
E: 87273.255958 0003 003a 41
E: 87273.255967 0003 0000 704
E: 87273.255967 0003 0001 255
E: 87273.255968 0003 0018 41
E: 87273.255969 0000 0000 0
E: 87273.265019 0003 0035 706
E: 87273.265021 0003 0036 248
E: 87273.265030 0003 0000 706
E: 87273.265030 0003 0001 248
E: 87273.265031 0000 0000 0
E: 87273.274057 0003 0035 709
E: 87273.274059 0003 0036 242
E: 87273.274059 0003 003a 39
E: 87273.274068 0003 0000 709
E: 87273.274069 0003 0001 242
E: 87273.274069 0003 0018 39
E: 87273.274070 0000 0000 0
E: 87273.282882 0003 0036 233
E: 87273.282893 0003 0001 233
E: 87273.282894 0000 0000 0
E: 87273.291698 0003 0035 708
E: 87273.291700 0003 0036 224
E: 87273.291700 0003 003a 40
E: 87273.291710 0003 0000 708
E: 87273.291710 0003 0001 224
E: 87273.291711 0003 0018 40
E: 87273.291712 0000 0000 0
E: 87273.300275 0003 0035 706
E: 87273.300276 0003 0036 215
E: 87273.300277 0003 003a 41
E: 87273.300286 0003 0000 706
E: 87273.300286 0003 0001 215
E: 87273.300287 0003 0018 41
E: 87273.300288 0000 0000 0
E: 87273.309289 0003 0035 703
E: 87273.309291 0003 0036 205
E: 87273.309300 0003 0000 703
E: 87273.309301 0003 0001 205
E: 87273.309302 0000 0000 0
E: 87273.318024 0003 0035 699
E: 87273.318026 0003 0036 198
E: 87273.318035 0003 0000 699
E: 87273.318035 0003 0001 198
E: 87273.318036 0000 0000 0
E: 87273.326856 0003 0035 692
E: 87273.326858 0003 0036 190
E: 87273.326858 0003 003a 40
E: 87273.326867 0003 0000 692
E: 87273.326867 0003 0001 190
E: 87273.326868 0003 0018 40
E: 87273.326869 0000 0000 0
E: 87273.335594 0003 0035 686
E: 87273.335595 0003 0036 184
E: 87273.335596 0003 003a 39
E: 87273.335605 0003 0000 686
E: 87273.335605 0003 0001 184
E: 87273.335606 0003 0018 39
E: 87273.335607 0000 0000 0
E: 87273.344508 0003 0035 679
E: 87273.344509 0003 0036 177
E: 87273.344510 0003 003a 40
E: 87273.344519 0003 0000 679
E: 87273.344520 0003 0001 177
E: 87273.344520 0003 0018 40
E: 87273.344521 0000 0000 0
E: 87273.353252 0003 0035 670
E: 87273.353253 0003 0036 170
E: 87273.353262 0003 0000 670
E: 87273.353262 0003 0001 170
E: 87273.353263 0000 0000 0
E: 87273.362107 0003 0035 663
E: 87273.362109 0003 0036 161
E: 87273.362109 0003 003a 41
E: 87273.362117 0003 0000 663
E: 87273.362118 0003 0001 161
E: 87273.362118 0003 0018 41
E: 87273.362119 0000 0000 0
E: 87273.370860 0003 0035 654
E: 87273.370861 0003 0036 154
E: 87273.370870 0003 0000 654
E: 87273.370871 0003 0001 154
E: 87273.370872 0000 0000 0
E: 87273.379631 0003 0035 645
E: 87273.379633 0003 0036 147
E: 87273.379642 0003 0000 645
E: 87273.379642 0003 0001 147
E: 87273.379643 0000 0000 0
E: 87273.388418 0003 0035 638
E: 87273.388419 0003 0036 141
E: 87273.388420 0003 003a 42
E: 87273.388428 0003 0000 638
E: 87273.388429 0003 0001 141
E: 87273.388429 0003 0018 42
E: 87273.388430 0000 0000 0
E: 87273.397323 0003 0035 630
E: 87273.397325 0003 0036 136
E: 87273.397333 0003 0000 630
E: 87273.397334 0003 0001 136
E: 87273.397335 0000 0000 0
E: 87273.406163 0003 0035 618
E: 87273.406165 0003 0036 130
E: 87273.406165 0003 003a 41
E: 87273.406173 0003 0000 618
E: 87273.406174 0003 0001 130
E: 87273.406175 0003 0018 41
E: 87273.406175 0000 0000 0
E: 87273.414971 0003 0035 604
E: 87273.414973 0003 0036 128
E: 87273.414974 0003 003a 43
E: 87273.414982 0003 0000 604
E: 87273.414983 0003 0001 128
E: 87273.414983 0003 0018 43
E: 87273.414984 0000 0000 0
E: 87273.424051 0003 0035 590
E: 87273.424054 0003 0036 124
E: 87273.424054 0003 003a 42
E: 87273.424063 0003 0000 590
E: 87273.424064 0003 0001 124
E: 87273.424064 0003 0018 42
E: 87273.424065 0000 0000 0
E: 87273.433369 0003 0035 575
E: 87273.433371 0003 0036 122
E: 87273.433371 0003 003a 41
E: 87273.433380 0003 0000 575
E: 87273.433381 0003 0001 122
E: 87273.433381 0003 0018 41
E: 87273.433382 0000 0000 0
E: 87273.442524 0003 0035 564
E: 87273.442525 0003 0036 119
E: 87273.442535 0003 0000 564
E: 87273.442535 0003 0001 119
E: 87273.442537 0000 0000 0
E: 87273.451586 0003 0035 555
E: 87273.451587 0003 0036 117
E: 87273.451588 0003 003a 40
E: 87273.451596 0003 0000 555
E: 87273.451597 0003 0001 117
E: 87273.451598 0003 0018 40
E: 87273.451599 0000 0000 0
E: 87273.460633 0003 0035 540
E: 87273.460635 0003 0036 112
E: 87273.460635 0003 003a 42
E: 87273.460644 0003 0000 540
E: 87273.460645 0003 0001 112
E: 87273.460645 0003 0018 42
E: 87273.460646 0000 0000 0
E: 87273.469600 0003 0035 523
E: 87273.469610 0003 0000 523
E: 87273.469611 0000 0000 0
E: 87273.478548 0003 0035 507
E: 87273.478549 0003 0036 110
E: 87273.478558 0003 0000 507
E: 87273.478558 0003 0001 110
E: 87273.478560 0000 0000 0
E: 87273.487810 0003 0035 492
E: 87273.487812 0003 0036 108
E: 87273.487822 0003 0000 492
E: 87273.487822 0003 0001 108
E: 87273.487823 0000 0000 0
E: 87273.496813 0003 0035 481
E: 87273.496815 0003 0036 107
E: 87273.496823 0003 0000 481
E: 87273.496824 0003 0001 107
E: 87273.496825 0000 0000 0
E: 87273.505778 0003 0035 470
E: 87273.505788 0003 0000 470
E: 87273.505789 0000 0000 0
E: 87273.514740 0003 0035 454
E: 87273.514750 0003 0000 454
E: 87273.514751 0000 0000 0
E: 87273.523739 0003 0035 438
E: 87273.523740 0003 0036 110
E: 87273.523749 0003 0000 438
E: 87273.523750 0003 0001 110
E: 87273.523751 0000 0000 0
E: 87273.532722 0003 0035 425
E: 87273.532724 0003 0036 111
E: 87273.532724 0003 003a 44
E: 87273.532733 0003 0000 425
E: 87273.532733 0003 0001 111
E: 87273.532734 0003 0018 44
E: 87273.532734 0000 0000 0
E: 87273.541901 0003 0035 411
E: 87273.541903 0003 0036 115
E: 87273.541903 0003 003a 43
E: 87273.541913 0003 0000 411
E: 87273.541913 0003 0001 115
E: 87273.541914 0003 0018 43
E: 87273.541915 0000 0000 0
E: 87273.551159 0003 0035 402
E: 87273.551161 0003 0036 116
E: 87273.551161 0003 003a 44
E: 87273.551170 0003 0000 402
E: 87273.551171 0003 0001 116
E: 87273.551172 0003 0018 44
E: 87273.551173 0000 0000 0
E: 87273.560394 0003 0035 395
E: 87273.560396 0003 0036 121
E: 87273.560397 0003 003a 43
E: 87273.560406 0003 0000 395
E: 87273.560407 0003 0001 121
E: 87273.560407 0003 0018 43
E: 87273.560408 0000 0000 0
E: 87273.569448 0003 0035 385
E: 87273.569450 0003 0036 124
E: 87273.569460 0003 0000 385
E: 87273.569461 0003 0001 124
E: 87273.569462 0000 0000 0
E: 87273.578242 0003 0035 375
E: 87273.578244 0003 0036 126
E: 87273.578245 0003 003a 44
E: 87273.578254 0003 0000 375
E: 87273.578255 0003 0001 126
E: 87273.578255 0003 0018 44
E: 87273.578256 0000 0000 0
E: 87273.587043 0003 0035 367
E: 87273.587045 0003 0036 128
E: 87273.587045 0003 003a 43
E: 87273.587055 0003 0000 367
E: 87273.587055 0003 0001 128
E: 87273.587056 0003 0018 43
E: 87273.587057 0000 0000 0
E: 87273.595700 0003 0035 360
E: 87273.595701 0003 0036 133
E: 87273.595702 0003 003a 44
E: 87273.595710 0003 0000 360
E: 87273.595711 0003 0001 133
E: 87273.595711 0003 0018 44
E: 87273.595712 0000 0000 0
E: 87273.604638 0003 0035 354
E: 87273.604640 0003 0036 134
E: 87273.604649 0003 0000 354
E: 87273.604650 0003 0001 134
E: 87273.604651 0000 0000 0
E: 87273.613324 0003 0035 349
E: 87273.613326 0003 0036 137
E: 87273.613326 0003 003a 43
E: 87273.613335 0003 0000 349
E: 87273.613335 0003 0001 137
E: 87273.613336 0003 0018 43
E: 87273.613337 0000 0000 0
E: 87273.622448 0003 0035 346
E: 87273.622450 0003 0036 140
E: 87273.622459 0003 0000 346
E: 87273.622460 0003 0001 140
E: 87273.622461 0000 0000 0
E: 87273.631239 0003 0035 344
E: 87273.631241 0003 0036 142
E: 87273.631242 0003 003a 44
E: 87273.631251 0003 0000 344
E: 87273.631251 0003 0001 142
E: 87273.631252 0003 0018 44
E: 87273.631253 0000 0000 0
E: 87273.649136 0003 0036 143
E: 87273.649147 0003 0001 143
E: 87273.649148 0000 0000 0
E: 87273.666984 0003 0036 144
E: 87273.666995 0003 0001 144
E: 87273.666997 0000 0000 0
E: 87273.711512 0003 0035 345
E: 87273.711514 0003 003a 45
E: 87273.711524 0003 0000 345
E: 87273.711524 0003 0018 45
E: 87273.711525 0000 0000 0
E: 87273.720303 0003 0035 347
E: 87273.720305 0003 0036 145
E: 87273.720306 0003 003a 42
E: 87273.720315 0003 0000 347
E: 87273.720315 0003 0001 145
E: 87273.720316 0003 0018 42
E: 87273.720317 0000 0000 0
E: 87273.728820 0003 0035 354
E: 87273.728822 0003 003a 25
E: 87273.728831 0003 0000 354
E: 87273.728832 0003 0018 25
E: 87273.728833 0000 0000 0
E: 87273.729333 0003 002f 0
E: 87273.729333 0003 0039 -1
E: 87273.729333 0003 002f 1
E: 87273.729333 0003 0039 -1
E: 87273.729333 0003 002f 2
E: 87273.729333 0003 0039 -1
E: 87273.729333 0003 002f 3
E: 87273.729333 0003 0039 -1
E: 87273.729333 0003 002f 4
E: 87273.729333 0003 0039 -1
E: 87273.729333 0003 002f 5
E: 87273.729333 0003 0039 -1
E: 87273.729333 0003 002f 6
E: 87273.729333 0003 0039 -1
E: 87273.729333 0003 002f 7
E: 87273.729333 0003 0039 -1
E: 87273.729333 0003 002f 8
E: 87273.729333 0003 0039 -1
E: 87273.729333 0003 002f 9
E: 87273.729333 0003 0039 -1
E: 87273.729333 0003 002f 10
E: 87273.729333 0003 0039 -1
E: 87273.729333 0003 002f 11
E: 87273.729333 0003 0039 -1
E: 87273.729333 0003 002f 12
E: 87273.729333 0003 0039 -1
E: 87273.729333 0003 002f 13
E: 87273.729333 0003 0039 -1
E: 87273.729333 0003 002f 14
E: 87273.729333 0003 0039 -1
