# device: Elan Touchpad
# bit: 0B 00 00 00 00 00 00 00
# key: 00 00 00 00 00 00 00 00 00 00 00 00 00 00 00 00 00 00 00 00 00 00 00 00 00 00 00 00 00 00 00 00 00 00 01 00 00 00 00 00 20 E5 00 00 00 00 00 00 00 00 00 00 00 00 00 00 00 00 00 00 00 00 00 00 00 00 00 00 00 00 00 00 00 00 00 00 00 00 00 00 00 00 00 00 00 00 00 00 00 00 00 00 00 00 00 00
# rel: 00 00 00 00 00 00 00 00
# abs: 03 00 00 11 00 80 63 06
# led: 00 00 00 00 00 00 00 00
# prp: 05 00 00 00 00 00 00 00
# absinfo: 0 0 3108 0 0 31
# absinfo: 1 0 2032 0 0 31
# absinfo: 24 0 255 0 0 0
# absinfo: 28 0 15 0 0 0
# absinfo: 47 0 4 0 0 0
# absinfo: 48 0 2340 0 0 0
# absinfo: 49 0 2325 0 0 0
# absinfo: 53 0 3108 0 0 31
# absinfo: 54 0 2032 0 0 31
# absinfo: 57 0 65535 0 0 0
# absinfo: 58 0 255 0 0 0
E: 1461.190633 0003 002f 0
E: 1461.190633 0003 0030 198
E: 1461.190633 0003 0031 130
E: 1461.190633 0003 0032 0
E: 1461.190633 0003 0033 0
E: 1461.190633 0003 0034 0
E: 1461.190633 0003 0035 1163
E: 1461.190633 0003 0036 454
E: 1461.190633 0003 0037 0
E: 1461.190633 0003 0038 0
E: 1461.190633 0003 0039 76
E: 1461.190633 0003 003a 48
E: 1461.190633 0003 003b 0
E: 1461.190633 0003 002f 1
E: 1461.190633 0003 0030 195
E: 1461.190633 0003 0031 132
E: 1461.190633 0003 0032 0
E: 1461.190633 0003 0033 0
E: 1461.190633 0003 0034 0
E: 1461.190633 0003 0035 1800
E: 1461.190633 0003 0036 290
E: 1461.190633 0003 0037 0
E: 1461.190633 0003 0038 0
E: 1461.190633 0003 0039 77
E: 1461.190633 0003 003a 51
E: 1461.190633 0003 003b 0
E: 1461.190633 0003 002f 2
E: 1461.190633 0003 0039 -1
E: 1461.190633 0003 002f 3
E: 1461.190633 0003 0039 -1
E: 1461.190633 0003 002f 4
E: 1461.190633 0003 0039 -1
E: 1461.190633 0003 002f 1
E: 1461.190633 0001 014a 1
E: 1461.190633 0001 014d 1
E: 1461.190633 0000 0000 0
E: 1461.196134 0003 002f 0
E: 1461.196134 0003 003a 50
E: 1461.196134 0003 001c 2
E: 1461.196134 0003 002f 1
E: 1461.196134 0003 003a 53
E: 1461.196134 0003 001c 3
E: 1461.196134 0003 0018 50
E: 1461.196134 0000 0000 0
E: 1461.205061 0003 002f 0
E: 1461.205061 0003 0036 451
E: 1461.205061 0003 003a 51
E: 1461.205061 0003 001c 2
E: 1461.205061 0003 0030 132
E: 1461.205061 0003 002f 1
E: 1461.205061 0003 003a 54
E: 1461.205061 0003 001c 3
E: 1461.205061 0003 0001 451
E: 1461.205061 0003 0018 51
E: 1461.205061 0000 0000 0
E: 1461.215627 0003 002f 0
E: 1461.215627 0003 0036 448
E: 1461.215627 0003 003a 52
E: 1461.215627 0003 001c 2
E: 1461.215627 0003 002f 1
E: 1461.215627 0003 003a 56
E: 1461.215627 0003 001c 3
E: 1461.215627 0003 0001 448
E: 1461.215627 0003 0018 52
E: 1461.215627 0000 0000 0
E: 1461.224962 0003 002f 0
E: 1461.224962 0003 0035 1164
E: 1461.224962 0003 0036 445
E: 1461.224962 0003 001c 2
E: 1461.224962 0003 001c 3
E: 1461.224962 0003 0000 1164
E: 1461.224962 0003 0001 445
E: 1461.224962 0000 0000 0
E: 1461.235110 0003 0036 443
E: 1461.235110 0003 003a 54
E: 1461.235110 0003 001c 2
E: 1461.235110 0003 0030 198
E: 1461.235110 0003 002f 1
E: 1461.235110 0003 003a 57
E: 1461.235110 0003 001c 3
E: 1461.235110 0003 0001 443
E: 1461.235110 0003 0018 54
E: 1461.235110 0000 0000 0
E: 1461.244863 0003 002f 0
E: 1461.244863 0003 0035 1165
E: 1461.244863 0003 003a 56
E: 1461.244863 0003 001c 2
E: 1461.244863 0003 002f 1
E: 1461.244863 0003 003a 58
E: 1461.244863 0003 001c 3
E: 1461.244863 0003 0000 1165
E: 1461.244863 0003 0018 56
E: 1461.244863 0000 0000 0
E: 1461.254818 0003 002f 0
E: 1461.254818 0003 0035 1166
E: 1461.254818 0003 0036 446
E: 1461.254818 0003 001c 2
E: 1461.254818 0003 001c 3
E: 1461.254818 0003 0000 1166
E: 1461.254818 0003 0001 446
E: 1461.254818 0000 0000 0
E: 1461.264819 0003 0035 1169
E: 1461.264819 0003 0036 456
E: 1461.264819 0003 003a 57
E: 1461.264819 0003 001c 2
E: 1461.264819 0003 002f 1
E: 1461.264819 0003 0035 1799
E: 1461.264819 0003 0036 295
E: 1461.264819 0003 003a 59
E: 1461.264819 0003 001c 4
E: 1461.264819 0003 0030 260
E: 1461.264819 0003 0031 198
E: 1461.264819 0003 0000 1169
E: 1461.264819 0003 0001 456
E: 1461.264819 0003 0018 57
E: 1461.264819 0000 0000 0
E: 1461.274935 0003 002f 0
E: 1461.274935 0003 0035 1175
E: 1461.274935 0003 0036 482
E: 1461.274935 0003 003a 58
E: 1461.274935 0003 001c 3
E: 1461.274935 0003 0031 195
E: 1461.274935 0003 002f 1
E: 1461.274935 0003 0035 1795
E: 1461.274935 0003 0036 314
E: 1461.274935 0003 003a 57
E: 1461.274935 0003 001c 4
E: 1461.274935 0003 0000 1175
E: 1461.274935 0003 0001 482
E: 1461.274935 0003 0018 58
E: 1461.274935 0000 0000 0
E: 1461.285251 0003 002f 0
E: 1461.285251 0003 0035 1187
E: 1461.285251 0003 0036 556
E: 1461.285251 0003 003a 60
E: 1461.285251 0003 001c 3
E: 1461.285251 0003 0030 264
E: 1461.285251 0003 002f 1
E: 1461.285251 0003 0035 1789
E: 1461.285251 0003 0036 392
E: 1461.285251 0003 003a 58
E: 1461.285251 0003 001c 4
E: 1461.285251 0003 0000 1187
E: 1461.285251 0003 0001 556
E: 1461.285251 0003 0018 60
E: 1461.285251 0000 0000 0
E: 1461.294620 0003 002f 0
E: 1461.294620 0003 0035 1203
E: 1461.294620 0003 0036 693
E: 1461.294620 0003 0031 260
E: 1461.294620 0003 002f 1
E: 1461.294620 0003 0035 1768
E: 1461.294620 0003 0036 568
E: 1461.294620 0003 003a 55
E: 1461.294620 0003 001c 3
E: 1461.294620 0003 0030 195
E: 1461.294620 0003 0031 132
E: 1461.294620 0003 0000 1203
E: 1461.294620 0003 0001 693
E: 1461.294620 0000 0000 0
E: 1461.304495 0003 002f 0
E: 1461.304495 0003 0035 1217
E: 1461.304495 0003 0036 838
E: 1461.304495 0003 003a 56
E: 1461.304495 0003 001c 4
E: 1461.304495 0003 0030 260
E: 1461.304495 0003 0031 198
E: 1461.304495 0003 002f 1
E: 1461.304495 0003 0035 1760
E: 1461.304495 0003 0036 713
E: 1461.304495 0003 003a 56
E: 1461.304495 0003 001c 3
E: 1461.304495 0003 0000 1217
E: 1461.304495 0003 0001 838
E: 1461.304495 0003 0018 56
E: 1461.304495 0000 0000 0
E: 1461.314437 0003 002f 0
E: 1461.314437 0003 0035 1228
E: 1461.314437 0003 0036 957
E: 1461.314437 0003 001c 4
E: 1461.314437 0003 002f 1
E: 1461.314437 0003 0035 1758
E: 1461.314437 0003 0036 856
E: 1461.314437 0003 003a 55
E: 1461.314437 0003 001c 3
E: 1461.314437 0003 0000 1228
E: 1461.314437 0003 0001 957
E: 1461.314437 0000 0000 0
E: 1461.324379 0003 002f 0
E: 1461.324379 0003 0035 1240
E: 1461.324379 0003 0036 1098
E: 1461.324379 0003 003a 55
E: 1461.324379 0003 001c 4
E: 1461.324379 0003 002f 1
E: 1461.324379 0003 0035 1756
E: 1461.324379 0003 0036 1012
E: 1461.324379 0003 003a 53
E: 1461.324379 0003 001c 3
E: 1461.324379 0003 0000 1240
E: 1461.324379 0003 0001 1098
E: 1461.324379 0003 0018 55
E: 1461.324379 0000 0000 0
E: 1461.334545 0003 002f 0
E: 1461.334545 0003 0035 1259
E: 1461.334545 0003 0036 1251
E: 1461.334545 0003 003a 52
E: 1461.334545 0003 001c 4
E: 1461.334545 0003 002f 1
E: 1461.334545 0003 0035 1764
E: 1461.334545 0003 0036 1200
E: 1461.334545 0003 003a 52
E: 1461.334545 0003 001c 3
E: 1461.334545 0003 0030 198
E: 1461.334545 0003 0031 195
E: 1461.334545 0003 0000 1259
E: 1461.334545 0003 0001 1251
E: 1461.334545 0003 0018 52
E: 1461.334545 0000 0000 0
E: 1461.344056 0003 002f 0
E: 1461.344056 0003 0035 1280
E: 1461.344056 0003 0036 1412
E: 1461.344056 0003 003a 51
E: 1461.344056 0003 001c 4
E: 1461.344056 0003 002f 1
E: 1461.344056 0003 0035 1770
E: 1461.344056 0003 0036 1389
E: 1461.344056 0003 003a 49
E: 1461.344056 0003 001c 3
E: 1461.344056 0003 0000 1280
E: 1461.344056 0003 0001 1412
E: 1461.344056 0003 0018 51
E: 1461.344056 0000 0000 0
E: 1461.354223 0003 002f 0
E: 1461.354223 0003 0035 1303
E: 1461.354223 0003 0036 1574
E: 1461.354223 0003 003a 49
E: 1461.354223 0003 0030 195
E: 1461.354223 0003 0031 132
E: 1461.354223 0003 002f 1
E: 1461.354223 0003 0035 1782
E: 1461.354223 0003 0036 1566
E: 1461.354223 0003 003a 45
E: 1461.354223 0003 001c 2
E: 1461.354223 0003 0030 132
E: 1461.354223 0003 0031 130
E: 1461.354223 0003 0000 1303
E: 1461.354223 0003 0001 1574
E: 1461.354223 0003 0018 49
E: 1461.354223 0000 0000 0
E: 1461.364240 0003 002f 0
E: 1461.364240 0003 0035 1330
E: 1461.364240 0003 0036 1732
E: 1461.364240 0003 003a 46
E: 1461.364240 0003 0030 132
E: 1461.364240 0003 0031 130
E: 1461.364240 0003 002f 1
E: 1461.364240 0003 0035 1797
E: 1461.364240 0003 0036 1716
E: 1461.364240 0003 003a 42
E: 1461.364240 0003 0000 1330
E: 1461.364240 0003 0001 1732
E: 1461.364240 0003 0018 46
E: 1461.364240 0000 0000 0
E: 1461.374115 0003 002f 0
E: 1461.374115 0003 0035 1357
E: 1461.374115 0003 0036 1890
E: 1461.374115 0003 001c 1
E: 1461.374115 0003 0030 66
E: 1461.374115 0003 0031 65
E: 1461.374115 0003 002f 1
E: 1461.374115 0003 0035 1812
E: 1461.374115 0003 0036 1866
E: 1461.374115 0003 001c 2
E: 1461.374115 0003 0000 1357
E: 1461.374115 0003 0001 1890
E: 1461.374115 0000 0000 0
E: 1461.384061 0003 002f 0
E: 1461.384061 0003 0035 1382
E: 1461.384061 0003 0036 2031
E: 1461.384061 0003 001c 1
E: 1461.384061 0003 002f 1
E: 1461.384061 0003 0035 1827
E: 1461.384061 0003 0036 2016
E: 1461.384061 0003 0030 66
E: 1461.384061 0003 0031 65
E: 1461.384061 0003 0000 1382
E: 1461.384061 0003 0001 2031
E: 1461.384061 0000 0000 0
E: 1461.393954 0003 002f 0
E: 1461.393954 0003 0039 -1
E: 1461.393954 0003 002f 1
E: 1461.393954 0003 0039 -1
E: 1461.393954 0001 014a 0
E: 1461.393954 0001 014d 0
E: 1461.393954 0003 0018 0
E: 1461.393954 0000 0000 0
E: 1461.626167 0003 002f 0
E: 1461.626167 0003 0039 78
E: 1461.626167 0003 0035 1594
E: 1461.626167 0003 0036 385
E: 1461.626167 0003 003a 57
E: 1461.626167 0003 001c 3
E: 1461.626167 0003 0030 198
E: 1461.626167 0003 0031 195
E: 1461.626167 0001 014a 1
E: 1461.626167 0001 0145 1
E: 1461.626167 0003 0000 1594
E: 1461.626167 0003 0001 385
E: 1461.626167 0003 0018 57
E: 1461.626167 0000 0000 0
E: 1461.632749 0003 0035 1602
E: 1461.632749 0003 0036 360
E: 1461.632749 0003 001c 4
E: 1461.632749 0003 0030 260
E: 1461.632749 0003 0031 198
E: 1461.632749 0003 002f 1
E: 1461.632749 0003 0039 79
E: 1461.632749 0003 0035 1091
E: 1461.632749 0003 0036 503
E: 1461.632749 0003 003a 57
E: 1461.632749 0003 001c 3
E: 1461.632749 0003 0030 198
E: 1461.632749 0003 0031 195
E: 1461.632749 0001 0145 0
E: 1461.632749 0001 014d 1
E: 1461.632749 0003 0000 1602
E: 1461.632749 0003 0001 360
E: 1461.632749 0000 0000 0
E: 1461.642692 0003 002f 0
E: 1461.642692 0003 0035 1605
E: 1461.642692 0003 0036 345
E: 1461.642692 0003 003a 56
E: 1461.642692 0003 001c 4
E: 1461.642692 0003 002f 1
E: 1461.642692 0003 003a 58
E: 1461.642692 0003 001c 3
E: 1461.642692 0003 0000 1605
E: 1461.642692 0003 0001 345
E: 1461.642692 0003 0018 56
E: 1461.642692 0000 0000 0
E: 1461.653179 0003 002f 0
E: 1461.653179 0003 0035 1606
E: 1461.653179 0003 0036 339
E: 1461.653179 0003 001c 4
E: 1461.653179 0003 001c 3
E: 1461.653179 0003 0000 1606
E: 1461.653179 0003 0001 339
E: 1461.653179 0000 0000 0
E: 1461.662780 0003 0036 337
E: 1461.662780 0003 001c 4
E: 1461.662780 0003 001c 3
E: 1461.662780 0003 0001 337
E: 1461.662780 0000 0000 0
E: 1461.672562 0003 0036 338
E: 1461.672562 0003 001c 4
E: 1461.672562 0003 002f 1
E: 1461.672562 0003 003a 59
E: 1461.672562 0003 001c 3
E: 1461.672562 0003 0001 338
E: 1461.672562 0000 0000 0
E: 1461.682535 0003 002f 0
E: 1461.682535 0003 0036 342
E: 1461.682535 0003 001c 4
E: 1461.682535 0003 002f 1
E: 1461.682535 0003 003a 58
E: 1461.682535 0003 001c 3
E: 1461.682535 0003 0001 342
E: 1461.682535 0000 0000 0
E: 1461.692660 0003 002f 0
E: 1461.692660 0003 0036 351
E: 1461.692660 0003 001c 4
E: 1461.692660 0003 001c 3
E: 1461.692660 0003 0001 351
E: 1461.692660 0000 0000 0
E: 1461.702395 0003 0035 1603
E: 1461.702395 0003 0036 366
E: 1461.702395 0003 0030 198
E: 1461.702395 0003 0031 195
E: 1461.702395 0003 002f 1
E: 1461.702395 0003 0035 1088
E: 1461.702395 0003 0036 507
E: 1461.702395 0003 003a 57
E: 1461.702395 0003 001c 4
E: 1461.702395 0003 0030 260
E: 1461.702395 0003 0031 198
E: 1461.702395 0003 0000 1603
E: 1461.702395 0003 0001 366
E: 1461.702395 0000 0000 0
E: 1461.712293 0003 002f 0
E: 1461.712293 0003 0035 1599
E: 1461.712293 0003 0036 390
E: 1461.712293 0003 001c 3
E: 1461.712293 0003 0030 195
E: 1461.712293 0003 0031 132
E: 1461.712293 0003 002f 1
E: 1461.712293 0003 0035 1085
E: 1461.712293 0003 0036 514
E: 1461.712293 0003 001c 4
E: 1461.712293 0003 0000 1599
E: 1461.712293 0003 0001 390
E: 1461.712293 0000 0000 0
E: 1461.722265 0003 002f 0
E: 1461.722265 0003 0035 1594
E: 1461.722265 0003 0036 414
E: 1461.722265 0003 001c 3
E: 1461.722265 0003 0030 198
E: 1461.722265 0003 0031 195
E: 1461.722265 0003 002f 1
E: 1461.722265 0003 0035 1081
E: 1461.722265 0003 0036 527
E: 1461.722265 0003 001c 4
E: 1461.722265 0003 0000 1594
E: 1461.722265 0003 0001 414
E: 1461.722265 0000 0000 0
E: 1461.732238 0003 002f 0
E: 1461.732238 0003 0035 1592
E: 1461.732238 0003 0036 435
E: 1461.732238 0003 0030 260
E: 1461.732238 0003 0031 198
E: 1461.732238 0003 002f 1
E: 1461.732238 0003 0035 1077
E: 1461.732238 0003 0036 544
E: 1461.732238 0003 003a 58
E: 1461.732238 0003 001c 3
E: 1461.732238 0003 0030 198
E: 1461.732238 0003 0031 195
E: 1461.732238 0003 0000 1592
E: 1461.732238 0003 0001 435
E: 1461.732238 0000 0000 0
E: 1461.742178 0003 002f 0
E: 1461.742178 0003 0036 453
E: 1461.742178 0003 003a 55
E: 1461.742178 0003 001c 4
E: 1461.742178 0003 002f 1
E: 1461.742178 0003 0035 1073
E: 1461.742178 0003 0036 558
E: 1461.742178 0003 001c 3
E: 1461.742178 0003 0001 453
E: 1461.742178 0003 0018 55
E: 1461.742178 0000 0000 0
E: 1461.752389 0003 002f 0
E: 1461.752389 0003 0036 465
E: 1461.752389 0003 001c 4
E: 1461.752389 0003 002f 1
E: 1461.752389 0003 0035 1071
E: 1461.752389 0003 0036 567
E: 1461.752389 0003 001c 3
E: 1461.752389 0003 0001 465
E: 1461.752389 0000 0000 0
E: 1461.762049 0003 002f 0
E: 1461.762049 0003 0036 472
E: 1461.762049 0003 001c 4
E: 1461.762049 0003 002f 1
E: 1461.762049 0003 0035 1069
E: 1461.762049 0003 0036 573
E: 1461.762049 0003 001c 3
E: 1461.762049 0003 0001 472
E: 1461.762049 0000 0000 0
E: 1461.771985 0003 002f 0
E: 1461.771985 0003 0035 1591
E: 1461.771985 0003 0036 476
E: 1461.771985 0003 001c 4
E: 1461.771985 0003 002f 1
E: 1461.771985 0003 0035 1068
E: 1461.771985 0003 0036 577
E: 1461.771985 0003 001c 3
E: 1461.771985 0003 0000 1591
E: 1461.771985 0003 0001 476
E: 1461.771985 0000 0000 0
E: 1461.782197 0003 002f 0
E: 1461.782197 0003 0036 479
E: 1461.782197 0003 001c 4
E: 1461.782197 0003 002f 1
E: 1461.782197 0003 0035 1067
E: 1461.782197 0003 0036 580
E: 1461.782197 0003 003a 59
E: 1461.782197 0003 001c 3
E: 1461.782197 0003 0001 479
E: 1461.782197 0000 0000 0
E: 1461.792184 0003 002f 0
E: 1461.792184 0003 0036 481
E: 1461.792184 0003 001c 4
E: 1461.792184 0003 002f 1
E: 1461.792184 0003 0035 1066
E: 1461.792184 0003 0036 583
E: 1461.792184 0003 001c 3
E: 1461.792184 0003 0001 481
E: 1461.792184 0000 0000 0
E: 1461.801843 0003 002f 0
E: 1461.801843 0003 0036 482
E: 1461.801843 0003 001c 4
E: 1461.801843 0003 002f 1
E: 1461.801843 0003 0035 1065
E: 1461.801843 0003 0036 585
E: 1461.801843 0003 001c 3
E: 1461.801843 0003 0001 482
E: 1461.801843 0000 0000 0
E: 1461.811771 0003 002f 0
E: 1461.811771 0003 0036 483
E: 1461.811771 0003 001c 4
E: 1461.811771 0003 002f 1
E: 1461.811771 0003 0035 1064
E: 1461.811771 0003 0036 587
E: 1461.811771 0003 001c 3
E: 1461.811771 0003 0001 483
E: 1461.811771 0000 0000 0
E: 1461.821698 0003 002f 0
E: 1461.821698 0003 0036 484
E: 1461.821698 0003 001c 4
E: 1461.821698 0003 002f 1
E: 1461.821698 0003 0035 1063
E: 1461.821698 0003 0036 588
E: 1461.821698 0003 001c 3
E: 1461.821698 0003 0001 484
E: 1461.821698 0000 0000 0
E: 1461.831633 0003 002f 0
E: 1461.831633 0003 0036 485
E: 1461.831633 0003 001c 4
E: 1461.831633 0003 002f 1
E: 1461.831633 0003 0036 589
E: 1461.831633 0003 001c 3
E: 1461.831633 0003 0001 485
E: 1461.831633 0000 0000 0
E: 1461.841601 0003 002f 0
E: 1461.841601 0003 0036 486
E: 1461.841601 0003 001c 4
E: 1461.841601 0003 002f 1
E: 1461.841601 0003 0036 590
E: 1461.841601 0003 001c 3
E: 1461.841601 0003 0001 486
E: 1461.841601 0000 0000 0
E: 1461.851703 0003 002f 0
E: 1461.851703 0003 0035 1592
E: 1461.851703 0003 0036 489
E: 1461.851703 0003 001c 4
E: 1461.851703 0003 002f 1
E: 1461.851703 0003 0036 591
E: 1461.851703 0003 001c 3
E: 1461.851703 0003 0000 1592
E: 1461.851703 0003 0001 489
E: 1461.851703 0000 0000 0
E: 1461.861470 0003 002f 0
E: 1461.861470 0003 0035 1594
E: 1461.861470 0003 0036 493
E: 1461.861470 0003 001c 4
E: 1461.861470 0003 002f 1
E: 1461.861470 0003 0036 593
E: 1461.861470 0003 003a 58
E: 1461.861470 0003 001c 3
E: 1461.861470 0003 0000 1594
E: 1461.861470 0003 0001 493
E: 1461.861470 0000 0000 0
E: 1461.871397 0003 002f 0
E: 1461.871397 0003 0035 1598
E: 1461.871397 0003 0036 502
E: 1461.871397 0003 001c 4
E: 1461.871397 0003 002f 1
E: 1461.871397 0003 0035 1064
E: 1461.871397 0003 0036 597
E: 1461.871397 0003 003a 57
E: 1461.871397 0003 001c 3
E: 1461.871397 0003 0000 1598
E: 1461.871397 0003 0001 502
E: 1461.871397 0000 0000 0
E: 1461.881361 0003 002f 0
E: 1461.881361 0003 0035 1603
E: 1461.881361 0003 0036 517
E: 1461.881361 0003 003a 56
E: 1461.881361 0003 0030 198
E: 1461.881361 0003 0031 195
E: 1461.881361 0003 002f 1
E: 1461.881361 0003 0035 1065
E: 1461.881361 0003 0036 603
E: 1461.881361 0003 003a 56
E: 1461.881361 0003 001c 4
E: 1461.881361 0003 0030 260
E: 1461.881361 0003 0031 198
E: 1461.881361 0003 0000 1603
E: 1461.881361 0003 0001 517
E: 1461.881361 0003 0018 56
E: 1461.881361 0000 0000 0
E: 1461.891533 0003 002f 0
E: 1461.891533 0003 0035 1610
E: 1461.891533 0003 0036 539
E: 1461.891533 0003 003a 53
E: 1461.891533 0003 001c 2
E: 1461.891533 0003 0030 132
E: 1461.891533 0003 0031 130
E: 1461.891533 0003 002f 1
E: 1461.891533 0003 0035 1070
E: 1461.891533 0003 0036 615
E: 1461.891533 0003 001c 3
E: 1461.891533 0003 0030 198
E: 1461.891533 0003 0031 195
E: 1461.891533 0003 0000 1610
E: 1461.891533 0003 0001 539
E: 1461.891533 0003 0018 53
E: 1461.891533 0000 0000 0
E: 1461.901251 0003 002f 0
E: 1461.901251 0003 0035 1618
E: 1461.901251 0003 0036 570
E: 1461.901251 0003 003a 54
E: 1461.901251 0003 001c 2
E: 1461.901251 0003 0030 198
E: 1461.901251 0003 002f 1
E: 1461.901251 0003 0035 1078
E: 1461.901251 0003 0036 634
E: 1461.901251 0003 001c 3
E: 1461.901251 0003 0000 1618
E: 1461.901251 0003 0001 570
E: 1461.901251 0003 0018 54
E: 1461.901251 0000 0000 0
E: 1461.911218 0003 002f 0
E: 1461.911218 0003 0035 1626
E: 1461.911218 0003 0036 620
E: 1461.911218 0003 003a 53
E: 1461.911218 0003 001c 2
E: 1461.911218 0003 002f 1
E: 1461.911218 0003 0035 1093
E: 1461.911218 0003 0036 666
E: 1461.911218 0003 001c 3
E: 1461.911218 0003 0030 264
E: 1461.911218 0003 0000 1626
E: 1461.911218 0003 0001 620
E: 1461.911218 0003 0018 53
E: 1461.911218 0000 0000 0
E: 1461.921406 0003 002f 0
E: 1461.921406 0003 0035 1640
E: 1461.921406 0003 0036 689
E: 1461.921406 0003 003a 52
E: 1461.921406 0003 0031 195
E: 1461.921406 0003 002f 1
E: 1461.921406 0003 0035 1115
E: 1461.921406 0003 0036 712
E: 1461.921406 0003 0030 198
E: 1461.921406 0003 0000 1640
E: 1461.921406 0003 0001 689
E: 1461.921406 0003 0018 52
E: 1461.921406 0000 0000 0
E: 1461.931159 0003 002f 0
E: 1461.931159 0003 0035 1654
E: 1461.931159 0003 0036 758
E: 1461.931159 0003 003a 53
E: 1461.931159 0003 002f 1
E: 1461.931159 0003 0035 1140
E: 1461.931159 0003 0036 766
E: 1461.931159 0003 003a 53
E: 1461.931159 0003 0000 1654
E: 1461.931159 0003 0001 758
E: 1461.931159 0003 0018 53
E: 1461.931159 0000 0000 0
E: 1461.941281 0003 002f 0
E: 1461.941281 0003 0035 1670
E: 1461.941281 0003 0036 827
E: 1461.941281 0003 003a 52
E: 1461.941281 0003 002f 1
E: 1461.941281 0003 0035 1160
E: 1461.941281 0003 0036 819
E: 1461.941281 0003 003a 52
E: 1461.941281 0003 001c 2
E: 1461.941281 0003 0031 130
E: 1461.941281 0003 0000 1670
E: 1461.941281 0003 0001 827
E: 1461.941281 0003 0018 52
E: 1461.941281 0000 0000 0
E: 1461.951021 0003 002f 0
E: 1461.951021 0003 0035 1683
E: 1461.951021 0003 0036 868
E: 1461.951021 0003 001c 3
E: 1461.951021 0003 0030 195
E: 1461.951021 0003 0031 132
E: 1461.951021 0003 002f 1
E: 1461.951021 0003 0035 1173
E: 1461.951021 0003 0036 854
E: 1461.951021 0003 003a 53
E: 1461.951021 0003 001c 2
E: 1461.951021 0003 0030 132
E: 1461.951021 0003 0000 1683
E: 1461.951021 0003 0001 868
E: 1461.951021 0000 0000 0
E: 1461.960912 0003 002f 0
E: 1461.960912 0003 0035 1695
E: 1461.960912 0003 0036 903
E: 1461.960912 0003 001c 4
E: 1461.960912 0003 0030 260
E: 1461.960912 0003 0031 198
E: 1461.960912 0003 002f 1
E: 1461.960912 0003 0035 1182
E: 1461.960912 0003 0036 884
E: 1461.960912 0003 003a 54
E: 1461.960912 0003 001c 3
E: 1461.960912 0003 0030 198
E: 1461.960912 0003 0031 195
E: 1461.960912 0003 0000 1695
E: 1461.960912 0003 0001 903
E: 1461.960912 0000 0000 0
E: 1461.970875 0003 002f 0
E: 1461.970875 0003 0035 1706
E: 1461.970875 0003 0036 951
E: 1461.970875 0003 003a 51
E: 1461.970875 0003 001c 4
E: 1461.970875 0003 002f 1
E: 1461.970875 0003 0035 1191
E: 1461.970875 0003 0036 918
E: 1461.970875 0003 003a 53
E: 1461.970875 0003 001c 3
E: 1461.970875 0003 0000 1706
E: 1461.970875 0003 0001 951
E: 1461.970875 0003 0018 51
E: 1461.970875 0000 0000 0
E: 1461.980812 0003 002f 0
E: 1461.980812 0003 0035 1725
E: 1461.980812 0003 0036 990
E: 1461.980812 0003 003a 52
E: 1461.980812 0003 001c 4
E: 1461.980812 0003 0031 132
E: 1461.980812 0003 002f 1
E: 1461.980812 0003 0035 1204
E: 1461.980812 0003 0036 957
E: 1461.980812 0003 001c 3
E: 1461.980812 0003 0000 1725
E: 1461.980812 0003 0001 990
E: 1461.980812 0003 0018 52
E: 1461.980812 0000 0000 0
E: 1461.991171 0003 002f 0
E: 1461.991171 0003 0035 1737
E: 1461.991171 0003 0036 1017
E: 1461.991171 0003 001c 4
E: 1461.991171 0003 002f 1
E: 1461.991171 0003 0035 1218
E: 1461.991171 0003 0036 990
E: 1461.991171 0003 001c 3
E: 1461.991171 0003 0030 195
E: 1461.991171 0003 0031 132
E: 1461.991171 0003 0000 1737
E: 1461.991171 0003 0001 1017
E: 1461.991171 0000 0000 0
E: 1462.000701 0003 002f 0
E: 1462.000701 0003 0035 1741
E: 1462.000701 0003 0036 1051
E: 1462.000701 0003 0030 198
E: 1462.000701 0003 0031 195
E: 1462.000701 0003 002f 1
E: 1462.000701 0003 0035 1230
E: 1462.000701 0003 0036 1019
E: 1462.000701 0003 003a 54
E: 1462.000701 0003 001c 4
E: 1462.000701 0003 0030 260
E: 1462.000701 0003 0031 198
E: 1462.000701 0003 0000 1741
E: 1462.000701 0003 0001 1051
E: 1462.000701 0000 0000 0
E: 1462.010639 0003 002f 0
E: 1462.010639 0003 0035 1757
E: 1462.010639 0003 0036 1093
E: 1462.010639 0003 001c 3
E: 1462.010639 0003 002f 1
E: 1462.010639 0003 0035 1248
E: 1462.010639 0003 0036 1051
E: 1462.010639 0003 003a 53
E: 1462.010639 0003 001c 4
E: 1462.010639 0003 0000 1757
E: 1462.010639 0003 0001 1093
E: 1462.010639 0000 0000 0
E: 1462.020607 0003 002f 0
E: 1462.020607 0003 0035 1771
E: 1462.020607 0003 0036 1141
E: 1462.020607 0003 003a 51
E: 1462.020607 0003 001c 2
E: 1462.020607 0003 0030 132
E: 1462.020607 0003 0031 130
E: 1462.020607 0003 002f 1
E: 1462.020607 0003 0035 1268
E: 1462.020607 0003 0036 1094
E: 1462.020607 0003 001c 3
E: 1462.020607 0003 0030 198
E: 1462.020607 0003 0031 195
E: 1462.020607 0003 0000 1771
E: 1462.020607 0003 0001 1141
E: 1462.020607 0003 0018 51
E: 1462.020607 0000 0000 0
E: 1462.030792 0003 002f 0
E: 1462.030792 0003 0035 1782
E: 1462.030792 0003 0036 1176
E: 1462.030792 0003 003a 52
E: 1462.030792 0003 001c 2
E: 1462.030792 0003 0030 198
E: 1462.030792 0003 002f 1
E: 1462.030792 0003 0035 1286
E: 1462.030792 0003 0036 1136
E: 1462.030792 0003 003a 52
E: 1462.030792 0003 001c 3
E: 1462.030792 0003 0030 195
E: 1462.030792 0003 0031 132
E: 1462.030792 0003 0000 1782
E: 1462.030792 0003 0001 1176
E: 1462.030792 0003 0018 52
E: 1462.030792 0000 0000 0
E: 1462.040757 0003 002f 0
E: 1462.040757 0003 0035 1798
E: 1462.040757 0003 0036 1220
E: 1462.040757 0003 003a 51
E: 1462.040757 0003 0031 195
E: 1462.040757 0003 002f 1
E: 1462.040757 0003 0035 1307
E: 1462.040757 0003 0036 1166
E: 1462.040757 0003 0000 1798
E: 1462.040757 0003 0001 1220
E: 1462.040757 0003 0018 51
E: 1462.040757 0000 0000 0
E: 1462.050692 0003 002f 0
E: 1462.050692 0003 0035 1818
E: 1462.050692 0003 0036 1270
E: 1462.050692 0003 002f 1
E: 1462.050692 0003 0035 1326
E: 1462.050692 0003 0036 1205
E: 1462.050692 0003 001c 2
E: 1462.050692 0003 0030 198
E: 1462.050692 0003 0031 130
E: 1462.050692 0003 0000 1818
E: 1462.050692 0003 0001 1270
E: 1462.050692 0000 0000 0
E: 1462.060385 0003 002f 0
E: 1462.060385 0003 0035 1841
E: 1462.060385 0003 0036 1318
E: 1462.060385 0003 001c 3
E: 1462.060385 0003 0030 195
E: 1462.060385 0003 0031 132
E: 1462.060385 0003 002f 1
E: 1462.060385 0003 0035 1342
E: 1462.060385 0003 0036 1263
E: 1462.060385 0003 003a 50
E: 1462.060385 0003 001c 2
E: 1462.060385 0003 0000 1841
E: 1462.060385 0003 0001 1318
E: 1462.060385 0000 0000 0
E: 1462.070331 0003 002f 0
E: 1462.070331 0003 0035 1875
E: 1462.070331 0003 0036 1379
E: 1462.070331 0003 003a 48
E: 1462.070331 0003 001c 4
E: 1462.070331 0003 0030 260
E: 1462.070331 0003 0031 198
E: 1462.070331 0003 002f 1
E: 1462.070331 0003 0035 1371
E: 1462.070331 0003 0036 1306
E: 1462.070331 0003 003a 52
E: 1462.070331 0003 001c 3
E: 1462.070331 0003 0030 195
E: 1462.070331 0003 0031 132
E: 1462.070331 0003 0000 1875
E: 1462.070331 0003 0001 1379
E: 1462.070331 0003 0018 48
E: 1462.070331 0000 0000 0
E: 1462.080335 0003 002f 0
E: 1462.080335 0003 0035 1886
E: 1462.080335 0003 0036 1433
E: 1462.080335 0003 003a 50
E: 1462.080335 0003 0030 195
E: 1462.080335 0003 0031 132
E: 1462.080335 0003 002f 1
E: 1462.080335 0003 0035 1388
E: 1462.080335 0003 0036 1355
E: 1462.080335 0003 003a 49
E: 1462.080335 0003 001c 4
E: 1462.080335 0003 0030 260
E: 1462.080335 0003 0031 198
E: 1462.080335 0003 0000 1886
E: 1462.080335 0003 0001 1433
E: 1462.080335 0003 0018 50
E: 1462.080335 0000 0000 0
E: 1462.090930 0003 002f 0
E: 1462.090930 0003 0035 1910
E: 1462.090930 0003 0036 1473
E: 1462.090930 0003 003a 48
E: 1462.090930 0003 001c 2
E: 1462.090930 0003 0030 132
E: 1462.090930 0003 0031 130
E: 1462.090930 0003 002f 1
E: 1462.090930 0003 0035 1422
E: 1462.090930 0003 0036 1417
E: 1462.090930 0003 001c 3
E: 1462.090930 0003 0030 198
E: 1462.090930 0003 0031 195
E: 1462.090930 0003 0000 1910
E: 1462.090930 0003 0001 1473
E: 1462.090930 0003 0018 48
E: 1462.090930 0000 0000 0
E: 1462.100175 0003 002f 0
E: 1462.100175 0003 0035 1914
E: 1462.100175 0003 0036 1538
E: 1462.100175 0003 003a 47
E: 1462.100175 0003 001c 2
E: 1462.100175 0003 0030 198
E: 1462.100175 0003 002f 1
E: 1462.100175 0003 0035 1441
E: 1462.100175 0003 0036 1477
E: 1462.100175 0003 003a 48
E: 1462.100175 0003 001c 3
E: 1462.100175 0003 0000 1914
E: 1462.100175 0003 0001 1538
E: 1462.100175 0003 0018 47
E: 1462.100175 0000 0000 0
E: 1462.110106 0003 002f 0
E: 1462.110106 0003 0035 1918
E: 1462.110106 0003 0036 1603
E: 1462.110106 0003 0030 195
E: 1462.110106 0003 0031 132
E: 1462.110106 0003 002f 1
E: 1462.110106 0003 0035 1460
E: 1462.110106 0003 0036 1537
E: 1462.110106 0003 001c 1
E: 1462.110106 0003 0030 66
E: 1462.110106 0003 0031 65
E: 1462.110106 0003 0000 1918
E: 1462.110106 0003 0001 1603
E: 1462.110106 0000 0000 0
E: 1462.120506 0003 002f 0
E: 1462.120506 0003 0035 1922
E: 1462.120506 0003 0036 1668
E: 1462.120506 0003 0030 66
E: 1462.120506 0003 0031 65
E: 1462.120506 0003 002f 1
E: 1462.120506 0003 0035 1479
E: 1462.120506 0003 0036 1597
E: 1462.120506 0003 0000 1922
E: 1462.120506 0003 0001 1668
E: 1462.120506 0000 0000 0
E: 1462.129986 0003 002f 0
E: 1462.129986 0003 0039 -1
E: 1462.129986 0003 002f 1
E: 1462.129986 0003 0039 -1
E: 1462.129986 0001 014a 0
E: 1462.129986 0001 014d 0
E: 1462.129986 0003 0018 0
E: 1462.129986 0000 0000 0
E: 1462.130486 0003 002f 0
E: 1462.130486 0003 0039 -1
E: 1462.130486 0003 002f 1
E: 1462.130486 0003 0039 -1
E: 1462.130486 0003 002f 2
E: 1462.130486 0003 0039 -1
E: 1462.130486 0003 002f 3
E: 1462.130486 0003 0039 -1
E: 1462.130486 0003 002f 4
E: 1462.130486 0003 0039 -1
